CH3/ROM/simulation/qsim/ROM.msim.vcd
$comment
	File created using the following command:
		vcd file ROM.msim.vcd -direction
$end
$date
	Mon Dec 05 13:09:44 2022
$end
$version
	ModelSim Version 10.5b
$end
$timescale
	1ps
$end

$scope module ROM_vlg_vec_tst $end
$var reg 6 ! address [5:0] $end
$var reg 1 " clock $end
$var wire 1 # q [23] $end
$var wire 1 $ q [22] $end
$var wire 1 % q [21] $end
$var wire 1 & q [20] $end
$var wire 1 ' q [19] $end
$var wire 1 ( q [18] $end
$var wire 1 ) q [17] $end
$var wire 1 * q [16] $end
$var wire 1 + q [15] $end
$var wire 1 , q [14] $end
$var wire 1 - q [13] $end
$var wire 1 . q [12] $end
$var wire 1 / q [11] $end
$var wire 1 0 q [10] $end
$var wire 1 1 q [9] $end
$var wire 1 2 q [8] $end
$var wire 1 3 q [7] $end
$var wire 1 4 q [6] $end
$var wire 1 5 q [5] $end
$var wire 1 6 q [4] $end
$var wire 1 7 q [3] $end
$var wire 1 8 q [2] $end
$var wire 1 9 q [1] $end
$var wire 1 : q [0] $end

$scope module i1 $end
$var wire 1 ; gnd $end
$var wire 1 < vcc $end
$var wire 1 = unknown $end
$var tri1 1 > devclrn $end
$var tri1 1 ? devpor $end
$var tri1 1 @ devoe $end
$var wire 1 A q[23]~output_o $end
$var wire 1 B q[22]~output_o $end
$var wire 1 C q[21]~output_o $end
$var wire 1 D q[20]~output_o $end
$var wire 1 E q[19]~output_o $end
$var wire 1 F q[18]~output_o $end
$var wire 1 G q[17]~output_o $end
$var wire 1 H q[16]~output_o $end
$var wire 1 I q[15]~output_o $end
$var wire 1 J q[14]~output_o $end
$var wire 1 K q[13]~output_o $end
$var wire 1 L q[12]~output_o $end
$var wire 1 M q[11]~output_o $end
$var wire 1 N q[10]~output_o $end
$var wire 1 O q[9]~output_o $end
$var wire 1 P q[8]~output_o $end
$var wire 1 Q q[7]~output_o $end
$var wire 1 R q[6]~output_o $end
$var wire 1 S q[5]~output_o $end
$var wire 1 T q[4]~output_o $end
$var wire 1 U q[3]~output_o $end
$var wire 1 V q[2]~output_o $end
$var wire 1 W q[1]~output_o $end
$var wire 1 X q[0]~output_o $end
$var wire 1 Y clock~input_o $end
$var wire 1 Z clock~inputclkctrl_outclk $end
$var wire 1 [ address[0]~input_o $end
$var wire 1 \ address[1]~input_o $end
$var wire 1 ] address[2]~input_o $end
$var wire 1 ^ address[3]~input_o $end
$var wire 1 _ address[4]~input_o $end
$var wire 1 ` address[5]~input_o $end
$var wire 1 a inst|srom|rom_block|auto_generated|q_a [23] $end
$var wire 1 b inst|srom|rom_block|auto_generated|q_a [22] $end
$var wire 1 c inst|srom|rom_block|auto_generated|q_a [21] $end
$var wire 1 d inst|srom|rom_block|auto_generated|q_a [20] $end
$var wire 1 e inst|srom|rom_block|auto_generated|q_a [19] $end
$var wire 1 f inst|srom|rom_block|auto_generated|q_a [18] $end
$var wire 1 g inst|srom|rom_block|auto_generated|q_a [17] $end
$var wire 1 h inst|srom|rom_block|auto_generated|q_a [16] $end
$var wire 1 i inst|srom|rom_block|auto_generated|q_a [15] $end
$var wire 1 j inst|srom|rom_block|auto_generated|q_a [14] $end
$var wire 1 k inst|srom|rom_block|auto_generated|q_a [13] $end
$var wire 1 l inst|srom|rom_block|auto_generated|q_a [12] $end
$var wire 1 m inst|srom|rom_block|auto_generated|q_a [11] $end
$var wire 1 n inst|srom|rom_block|auto_generated|q_a [10] $end
$var wire 1 o inst|srom|rom_block|auto_generated|q_a [9] $end
$var wire 1 p inst|srom|rom_block|auto_generated|q_a [8] $end
$var wire 1 q inst|srom|rom_block|auto_generated|q_a [7] $end
$var wire 1 r inst|srom|rom_block|auto_generated|q_a [6] $end
$var wire 1 s inst|srom|rom_block|auto_generated|q_a [5] $end
$var wire 1 t inst|srom|rom_block|auto_generated|q_a [4] $end
$var wire 1 u inst|srom|rom_block|auto_generated|q_a [3] $end
$var wire 1 v inst|srom|rom_block|auto_generated|q_a [2] $end
$var wire 1 w inst|srom|rom_block|auto_generated|q_a [1] $end
$var wire 1 x inst|srom|rom_block|auto_generated|q_a [0] $end
$var wire 1 y inst|srom|rom_block|auto_generated|ram_block1a0_PORTADATAOUT_bus [35] $end
$var wire 1 z inst|srom|rom_block|auto_generated|ram_block1a0_PORTADATAOUT_bus [34] $end
$var wire 1 { inst|srom|rom_block|auto_generated|ram_block1a0_PORTADATAOUT_bus [33] $end
$var wire 1 | inst|srom|rom_block|auto_generated|ram_block1a0_PORTADATAOUT_bus [32] $end
$var wire 1 } inst|srom|rom_block|auto_generated|ram_block1a0_PORTADATAOUT_bus [31] $end
$var wire 1 ~ inst|srom|rom_block|auto_generated|ram_block1a0_PORTADATAOUT_bus [30] $end
$var wire 1 !! inst|srom|rom_block|auto_generated|ram_block1a0_PORTADATAOUT_bus [29] $end
$var wire 1 "! inst|srom|rom_block|auto_generated|ram_block1a0_PORTADATAOUT_bus [28] $end
$var wire 1 #! inst|srom|rom_block|auto_generated|ram_block1a0_PORTADATAOUT_bus [27] $end
$var wire 1 $! inst|srom|rom_block|auto_generated|ram_block1a0_PORTADATAOUT_bus [26] $end
$var wire 1 %! inst|srom|rom_block|auto_generated|ram_block1a0_PORTADATAOUT_bus [25] $end
$var wire 1 &! inst|srom|rom_block|auto_generated|ram_block1a0_PORTADATAOUT_bus [24] $end
$var wire 1 '! inst|srom|rom_block|auto_generated|ram_block1a0_PORTADATAOUT_bus [23] $end
$var wire 1 (! inst|srom|rom_block|auto_generated|ram_block1a0_PORTADATAOUT_bus [22] $end
$var wire 1 )! inst|srom|rom_block|auto_generated|ram_block1a0_PORTADATAOUT_bus [21] $end
$var wire 1 *! inst|srom|rom_block|auto_generated|ram_block1a0_PORTADATAOUT_bus [20] $end
$var wire 1 +! inst|srom|rom_block|auto_generated|ram_block1a0_PORTADATAOUT_bus [19] $end
$var wire 1 ,! inst|srom|rom_block|auto_generated|ram_block1a0_PORTADATAOUT_bus [18] $end
$var wire 1 -! inst|srom|rom_block|auto_generated|ram_block1a0_PORTADATAOUT_bus [17] $end
$var wire 1 .! inst|srom|rom_block|auto_generated|ram_block1a0_PORTADATAOUT_bus [16] $end
$var wire 1 /! inst|srom|rom_block|auto_generated|ram_block1a0_PORTADATAOUT_bus [15] $end
$var wire 1 0! inst|srom|rom_block|auto_generated|ram_block1a0_PORTADATAOUT_bus [14] $end
$var wire 1 1! inst|srom|rom_block|auto_generated|ram_block1a0_PORTADATAOUT_bus [13] $end
$var wire 1 2! inst|srom|rom_block|auto_generated|ram_block1a0_PORTADATAOUT_bus [12] $end
$var wire 1 3! inst|srom|rom_block|auto_generated|ram_block1a0_PORTADATAOUT_bus [11] $end
$var wire 1 4! inst|srom|rom_block|auto_generated|ram_block1a0_PORTADATAOUT_bus [10] $end
$var wire 1 5! inst|srom|rom_block|auto_generated|ram_block1a0_PORTADATAOUT_bus [9] $end
$var wire 1 6! inst|srom|rom_block|auto_generated|ram_block1a0_PORTADATAOUT_bus [8] $end
$var wire 1 7! inst|srom|rom_block|auto_generated|ram_block1a0_PORTADATAOUT_bus [7] $end
$var wire 1 8! inst|srom|rom_block|auto_generated|ram_block1a0_PORTADATAOUT_bus [6] $end
$var wire 1 9! inst|srom|rom_block|auto_generated|ram_block1a0_PORTADATAOUT_bus [5] $end
$var wire 1 :! inst|srom|rom_block|auto_generated|ram_block1a0_PORTADATAOUT_bus [4] $end
$var wire 1 ;! inst|srom|rom_block|auto_generated|ram_block1a0_PORTADATAOUT_bus [3] $end
$var wire 1 <! inst|srom|rom_block|auto_generated|ram_block1a0_PORTADATAOUT_bus [2] $end
$var wire 1 =! inst|srom|rom_block|auto_generated|ram_block1a0_PORTADATAOUT_bus [1] $end
$var wire 1 >! inst|srom|rom_block|auto_generated|ram_block1a0_PORTADATAOUT_bus [0] $end
$upscope $end
$upscope $end
$enddefinitions $end
#0
$dumpvars
b1 !
0"
0:
09
08
07
06
05
04
03
02
01
00
0/
0.
0-
0,
0+
0*
0)
0(
0'
0&
0%
0$
0#
0;
1<
x=
1>
1?
1@
0A
0B
0C
0D
0E
0F
0G
0H
0I
0J
0K
0L
0M
0N
0O
0P
0Q
0R
0S
0T
0U
0V
0W
0X
0Y
0Z
1[
0\
0]
0^
0_
0`
0x
0w
0v
0u
0t
0s
0r
0q
0p
0o
0n
0m
0l
0k
0j
0i
0h
0g
0f
0e
0d
0c
0b
0a
0>!
0=!
0<!
0;!
0:!
09!
08!
07!
06!
05!
04!
03!
02!
01!
00!
0/!
0.!
0-!
0,!
0+!
0*!
0)!
0(!
0'!
0&!
0%!
0$!
0#!
0"!
0!!
0~
0}
0|
0{
0z
0y
$end
#5000
1"
1Y
1Z
#5001
1=!
1<!
1;!
1:!
1w
1v
1u
1t
1T
1U
1V
1W
19
18
17
16
#10000
0"
0Y
0Z
#15000
1"
1Y
1Z
#20000
0"
0Y
0Z
#25000
1"
1Y
1Z
#30000
0"
0Y
0Z
#35000
1"
1Y
1Z
#40000
0"
0Y
0Z
#45000
1"
1Y
1Z
#50000
0"
0Y
0Z
#55000
1"
1Y
1Z
#60000
0"
0Y
0Z
#65000
1"
1Y
1Z
#70000
0"
0Y
0Z
#75000
1"
1Y
1Z
#80000
b11 !
b10 !
0"
0[
1\
0Y
0Z
#85000
1"
1Y
1Z
#85001
19!
1s
1S
15
#90000
0"
0Y
0Z
#95000
1"
1Y
1Z
#100000
0"
0Y
0Z
#105000
1"
1Y
1Z
#110000
0"
0Y
0Z
#115000
1"
1Y
1Z
#120000
0"
0Y
0Z
#125000
1"
1Y
1Z
#130000
0"
0Y
0Z
#135000
1"
1Y
1Z
#140000
0"
0Y
0Z
#145000
1"
1Y
1Z
#150000
0"
0Y
0Z
#155000
1"
1Y
1Z
#160000
b11 !
0"
1[
0Y
0Z
#165000
1"
1Y
1Z
#165001
0:!
18!
0t
1r
1R
0T
06
14
#170000
0"
0Y
0Z
#175000
1"
1Y
1Z
#180000
0"
0Y
0Z
#185000
1"
1Y
1Z
#190000
0"
0Y
0Z
#195000
1"
1Y
1Z
#200000
0"
0Y
0Z
#205000
1"
1Y
1Z
#210000
0"
0Y
0Z
#215000
1"
1Y
1Z
#220000
b111 !
b101 !
b100 !
0"
0[
0\
1]
0Y
0Z
#225000
1"
1Y
1Z
#225001
1>!
1x
1X
1:
#230000
0"
0Y
0Z
#235000
1"
1Y
1Z
#240000
0"
0Y
0Z
#245000
1"
1Y
1Z
#250000
0"
0Y
0Z
#255000
1"
1Y
1Z
#260000
0"
0Y
0Z
#265000
1"
1Y
1Z
#270000
0"
0Y
0Z
#275000
1"
1Y
1Z
#280000
0"
0Y
0Z
#285000
1"
1Y
1Z
#290000
0"
0Y
0Z
#295000
1"
1Y
1Z
#300000
0"
0Y
0Z
#305000
1"
1Y
1Z
#310000
0"
0Y
0Z
#315000
1"
1Y
1Z
#320000
b101 !
0"
1[
0Y
0Z
#325000
1"
1Y
1Z
#325001
0<!
0;!
1:!
09!
0v
0u
1t
0s
0S
1T
0U
0V
08
07
16
05
#330000
0"
0Y
0Z
#335000
1"
1Y
1Z
#340000
0"
0Y
0Z
#345000
1"
1Y
1Z
#350000
0"
0Y
0Z
#355000
1"
1Y
1Z
#360000
0"
0Y
0Z
#365000
1"
1Y
1Z
#370000
0"
0Y
0Z
#375000
1"
1Y
1Z
#380000
0"
0Y
0Z
#385000
1"
1Y
1Z
#390000
0"
0Y
0Z
#395000
1"
1Y
1Z
#400000
b1 !
b0 !
0"
0[
0]
0Y
0Z
#405000
1"
1Y
1Z
#405001
0>!
08!
0x
0r
0R
0X
0:
04
#410000
0"
0Y
0Z
#415000
1"
1Y
1Z
#420000
0"
0Y
0Z
#425000
1"
1Y
1Z
#430000
0"
0Y
0Z
#435000
1"
1Y
1Z
#440000
0"
0Y
0Z
#445000
1"
1Y
1Z
#450000
0"
0Y
0Z
#455000
1"
1Y
1Z
#460000
0"
0Y
0Z
#465000
1"
1Y
1Z
#470000
0"
0Y
0Z
#475000
1"
1Y
1Z
#480000
0"
0Y
0Z
#485000
1"
1Y
1Z
#490000
0"
0Y
0Z
#495000
1"
1Y
1Z
#500000
0"
0Y
0Z
#505000
1"
1Y
1Z
#510000
0"
0Y
0Z
#515000
1"
1Y
1Z
#520000
0"
0Y
0Z
#525000
1"
1Y
1Z
#530000
b10000 !
b11000 !
b11010 !
0"
1\
1^
1_
0Y
0Z
#535000
1"
1Y
1Z
#535001
1<!
1;!
0:!
19!
18!
17!
1v
1u
0t
1s
1r
1q
1Q
1R
1S
0T
1U
1V
18
17
06
15
14
13
#540000
0"
0Y
0Z
#545000
1"
1Y
1Z
#550000
0"
0Y
0Z
#555000
1"
1Y
1Z
#560000
0"
0Y
0Z
#565000
1"
1Y
1Z
#570000
0"
0Y
0Z
#575000
1"
1Y
1Z
#580000
0"
0Y
0Z
#585000
1"
1Y
1Z
#590000
b1010 !
b10 !
b0 !
0"
0\
0^
0_
0Y
0Z
#595000
1"
1Y
1Z
#595001
0<!
0;!
1:!
09!
08!
07!
0v
0u
1t
0s
0r
0q
0Q
0R
0S
1T
0U
0V
08
07
16
05
04
03
#600000
0"
0Y
0Z
#605000
1"
1Y
1Z
#610000
0"
0Y
0Z
#615000
1"
1Y
1Z
#620000
0"
0Y
0Z
#625000
1"
1Y
1Z
#630000
0"
0Y
0Z
#635000
1"
1Y
1Z
#640000
0"
0Y
0Z
#645000
1"
1Y
1Z
#650000
0"
0Y
0Z
#655000
1"
1Y
1Z
#660000
0"
0Y
0Z
#665000
1"
1Y
1Z
#670000
0"
0Y
0Z
#675000
1"
1Y
1Z
#680000
0"
0Y
0Z
#685000
1"
1Y
1Z
#690000
0"
0Y
0Z
#695000
1"
1Y
1Z
#700000
0"
0Y
0Z
#705000
1"
1Y
1Z
#710000
0"
0Y
0Z
#715000
1"
1Y
1Z
#720000
0"
0Y
0Z
#725000
1"
1Y
1Z
#730000
0"
0Y
0Z
#735000
1"
1Y
1Z
#740000
0"
0Y
0Z
#745000
1"
1Y
1Z
#750000
0"
0Y
0Z
#755000
1"
1Y
1Z
#760000
0"
0Y
0Z
#765000
1"
1Y
1Z
#770000
0"
0Y
0Z
#775000
1"
1Y
1Z
#780000
0"
0Y
0Z
#785000
1"
1Y
1Z
#790000
0"
0Y
0Z
#795000
1"
1Y
1Z
#800000
0"
0Y
0Z
#805000
1"
1Y
1Z
#810000
0"
0Y
0Z
#815000
1"
1Y
1Z
#820000
0"
0Y
0Z
#825000
1"
1Y
1Z
#830000
0"
0Y
0Z
#835000
1"
1Y
1Z
#840000
0"
0Y
0Z
#845000
1"
1Y
1Z
#850000
0"
0Y
0Z
#855000
1"
1Y
1Z
#860000
0"
0Y
0Z
#865000
1"
1Y
1Z
#870000
0"
0Y
0Z
#875000
1"
1Y
1Z
#880000
0"
0Y
0Z
#885000
1"
1Y
1Z
#890000
0"
0Y
0Z
#895000
1"
1Y
1Z
#900000
0"
0Y
0Z
#905000
1"
1Y
1Z
#910000
0"
0Y
0Z
#915000
1"
1Y
1Z
#920000
0"
0Y
0Z
#925000
1"
1Y
1Z
#930000
0"
0Y
0Z
#935000
1"
1Y
1Z
#940000
0"
0Y
0Z
#945000
1"
1Y
1Z
#950000
0"
0Y
0Z
#955000
1"
1Y
1Z
#960000
0"
0Y
0Z
#965000
1"
1Y
1Z
#970000
0"
0Y
0Z
#975000
1"
1Y
1Z
#980000
0"
0Y
0Z
#985000
1"
1Y
1Z
#990000
0"
0Y
0Z
#995000
1"
1Y
1Z
