CH2/counter0317/simulation/qsim/counter0317.msim.vcd
$comment
	File created using the following command:
		vcd file counter0317.msim.vcd -direction
$end
$date
	Mon Dec 05 10:49:51 2022
$end
$version
	ModelSim Version 10.5b
$end
$timescale
	1ps
$end

$scope module counter0317_vlg_vec_tst $end
$var reg 1 ! aclr $end
$var reg 1 " aload $end
$var reg 1 # clock $end
$var reg 8 $ data [7:0] $end
$var wire 1 % q [7] $end
$var wire 1 & q [6] $end
$var wire 1 ' q [5] $end
$var wire 1 ( q [4] $end
$var wire 1 ) q [3] $end
$var wire 1 * q [2] $end
$var wire 1 + q [1] $end
$var wire 1 , q [0] $end

$scope module i1 $end
$var wire 1 - gnd $end
$var wire 1 . vcc $end
$var wire 1 / unknown $end
$var tri1 1 0 devclrn $end
$var tri1 1 1 devpor $end
$var tri1 1 2 devoe $end
$var wire 1 3 q[7]~output_o $end
$var wire 1 4 q[6]~output_o $end
$var wire 1 5 q[5]~output_o $end
$var wire 1 6 q[4]~output_o $end
$var wire 1 7 q[3]~output_o $end
$var wire 1 8 q[2]~output_o $end
$var wire 1 9 q[1]~output_o $end
$var wire 1 : q[0]~output_o $end
$var wire 1 ; clock~input_o $end
$var wire 1 < clock~inputclkctrl_outclk $end
$var wire 1 = data[7]~input_o $end
$var wire 1 > aclr~input_o $end
$var wire 1 ? aload~input_o $end
$var wire 1 @ aload~inputclkctrl_outclk $end
$var wire 1 A inst|LPM_COUNTER_component|auto_generated|latch_signal[7]~8_combout $end
$var wire 1 B data[6]~input_o $end
$var wire 1 C inst|LPM_COUNTER_component|auto_generated|latch_signal[6]~9_combout $end
$var wire 1 D data[4]~input_o $end
$var wire 1 E inst|LPM_COUNTER_component|auto_generated|latch_signal[4]~11_combout $end
$var wire 1 F data[2]~input_o $end
$var wire 1 G inst|LPM_COUNTER_component|auto_generated|latch_signal[2]~13_combout $end
$var wire 1 H data[1]~input_o $end
$var wire 1 I inst|LPM_COUNTER_component|auto_generated|latch_signal[1]~14_combout $end
$var wire 1 J data[0]~input_o $end
$var wire 1 K inst|LPM_COUNTER_component|auto_generated|latch_signal[0]~15_combout $end
$var wire 1 L inst|LPM_COUNTER_component|auto_generated|counter_comb_bita0~combout $end
$var wire 1 M inst|LPM_COUNTER_component|auto_generated|counter_reg_bit[0]~7_combout $end
$var wire 1 N inst|LPM_COUNTER_component|auto_generated|safe_q[7]~8_combout $end
$var wire 1 O inst|LPM_COUNTER_component|auto_generated|counter_comb_bita0~COUT $end
$var wire 1 P inst|LPM_COUNTER_component|auto_generated|counter_comb_bita1~combout $end
$var wire 1 Q inst|LPM_COUNTER_component|auto_generated|counter_reg_bit[1]~6_combout $end
$var wire 1 R inst|LPM_COUNTER_component|auto_generated|counter_comb_bita1~COUT $end
$var wire 1 S inst|LPM_COUNTER_component|auto_generated|counter_comb_bita2~combout $end
$var wire 1 T inst|LPM_COUNTER_component|auto_generated|counter_reg_bit[2]~5_combout $end
$var wire 1 U inst|LPM_COUNTER_component|auto_generated|counter_comb_bita2~COUT $end
$var wire 1 V inst|LPM_COUNTER_component|auto_generated|counter_comb_bita3~combout $end
$var wire 1 W data[3]~input_o $end
$var wire 1 X inst|LPM_COUNTER_component|auto_generated|latch_signal[3]~12_combout $end
$var wire 1 Y inst|LPM_COUNTER_component|auto_generated|counter_reg_bit[3]~4_combout $end
$var wire 1 Z inst|LPM_COUNTER_component|auto_generated|counter_comb_bita3~COUT $end
$var wire 1 [ inst|LPM_COUNTER_component|auto_generated|counter_comb_bita4~combout $end
$var wire 1 \ inst|LPM_COUNTER_component|auto_generated|counter_reg_bit[4]~3_combout $end
$var wire 1 ] inst|LPM_COUNTER_component|auto_generated|counter_comb_bita4~COUT $end
$var wire 1 ^ inst|LPM_COUNTER_component|auto_generated|counter_comb_bita5~combout $end
$var wire 1 _ data[5]~input_o $end
$var wire 1 ` inst|LPM_COUNTER_component|auto_generated|latch_signal[5]~10_combout $end
$var wire 1 a inst|LPM_COUNTER_component|auto_generated|counter_reg_bit[5]~2_combout $end
$var wire 1 b inst|LPM_COUNTER_component|auto_generated|counter_comb_bita5~COUT $end
$var wire 1 c inst|LPM_COUNTER_component|auto_generated|counter_comb_bita6~combout $end
$var wire 1 d inst|LPM_COUNTER_component|auto_generated|counter_reg_bit[6]~1_combout $end
$var wire 1 e inst|LPM_COUNTER_component|auto_generated|counter_comb_bita6~COUT $end
$var wire 1 f inst|LPM_COUNTER_component|auto_generated|counter_comb_bita7~combout $end
$var wire 1 g inst|LPM_COUNTER_component|auto_generated|counter_reg_bit[7]~0_combout $end
$var wire 1 h inst|LPM_COUNTER_component|auto_generated|safe_q[7]~0_combout $end
$var wire 1 i inst|LPM_COUNTER_component|auto_generated|safe_q[6]~1_combout $end
$var wire 1 j inst|LPM_COUNTER_component|auto_generated|safe_q[5]~2_combout $end
$var wire 1 k inst|LPM_COUNTER_component|auto_generated|safe_q[4]~3_combout $end
$var wire 1 l inst|LPM_COUNTER_component|auto_generated|safe_q[3]~4_combout $end
$var wire 1 m inst|LPM_COUNTER_component|auto_generated|safe_q[2]~5_combout $end
$var wire 1 n inst|LPM_COUNTER_component|auto_generated|safe_q[1]~6_combout $end
$var wire 1 o inst|LPM_COUNTER_component|auto_generated|safe_q[0]~7_combout $end
$var wire 1 p inst|LPM_COUNTER_component|auto_generated|counter_reg_bit [7] $end
$var wire 1 q inst|LPM_COUNTER_component|auto_generated|counter_reg_bit [6] $end
$var wire 1 r inst|LPM_COUNTER_component|auto_generated|counter_reg_bit [5] $end
$var wire 1 s inst|LPM_COUNTER_component|auto_generated|counter_reg_bit [4] $end
$var wire 1 t inst|LPM_COUNTER_component|auto_generated|counter_reg_bit [3] $end
$var wire 1 u inst|LPM_COUNTER_component|auto_generated|counter_reg_bit [2] $end
$var wire 1 v inst|LPM_COUNTER_component|auto_generated|counter_reg_bit [1] $end
$var wire 1 w inst|LPM_COUNTER_component|auto_generated|counter_reg_bit [0] $end
$var wire 1 x inst|LPM_COUNTER_component|auto_generated|pre_hazard [7] $end
$var wire 1 y inst|LPM_COUNTER_component|auto_generated|pre_hazard [6] $end
$var wire 1 z inst|LPM_COUNTER_component|auto_generated|pre_hazard [5] $end
$var wire 1 { inst|LPM_COUNTER_component|auto_generated|pre_hazard [4] $end
$var wire 1 | inst|LPM_COUNTER_component|auto_generated|pre_hazard [3] $end
$var wire 1 } inst|LPM_COUNTER_component|auto_generated|pre_hazard [2] $end
$var wire 1 ~ inst|LPM_COUNTER_component|auto_generated|pre_hazard [1] $end
$var wire 1 !! inst|LPM_COUNTER_component|auto_generated|pre_hazard [0] $end
$upscope $end
$upscope $end
$enddefinitions $end
#0
$dumpvars
1!
0"
0#
b0 $
0,
0+
0*
0)
0(
0'
0&
0%
0-
1.
x/
10
11
12
03
04
05
06
07
08
09
0:
0;
0<
0=
1>
0?
0@
1A
0B
1C
0D
1E
0F
1G
0H
1I
0J
1K
1L
1M
1N
0O
0P
0Q
1R
0S
0T
0U
0V
0W
1X
0Y
1Z
0[
0\
0]
0^
0_
1`
0a
1b
0c
0d
0e
0f
0g
0h
0i
0j
0k
0l
0m
0n
0o
0w
0v
0u
0t
0s
0r
0q
0p
1!!
1~
1}
1|
1{
1z
1y
1x
$end
#20000
0!
1#
0>
1;
1<
0N
#40000
0#
0;
0<
#60000
1#
1;
1<
1w
0!!
1O
0L
1o
1:
1P
1,
0M
1Q
#80000
0#
0;
0<
#100000
1#
1;
1<
1v
0w
0~
1!!
0R
0P
0O
1L
1n
0o
0:
19
1S
1R
1P
1+
0,
0Q
1M
0S
1T
1Q
0T
#120000
0#
0;
0<
#140000
1#
1;
1<
1w
0!!
1O
0L
1o
1:
0R
0P
1,
0M
1S
0Q
1T
#160000
0#
0;
0<
#180000
1"
b10 $
b11 $
1#
1?
1J
1H
1;
1@
1<
1N
0K
0I
1!!
1~
1M
1Q
0O
1L
1R
1P
0P
0S
0M
0Q
1Q
0T
0v
0w
0~
0!!
1P
1O
0L
0R
0P
0Q
1M
1S
1Q
1T
#200000
0"
b1 $
b0 $
0#
0?
0J
0H
0;
0@
0<
0N
#220000
1#
1;
1<
1u
1v
1w
0}
1~
1!!
1U
0S
1R
1P
0O
1L
1m
0n
0o
0:
09
18
1V
0U
1S
0P
1*
0+
0,
0T
0Q
0M
0V
1Y
1T
1Q
0Y
#240000
0#
0;
0<
#260000
1#
1;
1<
0w
0!!
1O
0L
1o
1:
1P
1,
1M
0Q
#280000
0#
0;
0<
#300000
1#
1;
1<
0v
1w
0~
1!!
0R
0P
0O
1L
1n
0o
0:
19
1U
0S
1R
1P
1+
0,
1Q
0M
1V
0U
1S
0T
0Q
0V
1Y
1T
0Y
#320000
0#
0;
0<
#340000
1#
1;
1<
0w
0!!
1O
0L
1o
1:
0R
0P
1,
1M
1U
0S
1Q
1V
0T
1Y
#360000
0#
0;
0<
#380000
1#
1;
1<
1t
0u
1v
1w
0|
1}
1~
1!!
0Z
0V
0U
1S
1R
1P
0O
1L
1l
0m
0n
0o
0:
09
08
17
1[
1Z
1V
0S
0P
1)
0*
0+
0,
0Y
1T
0Q
0M
0[
1\
1Y
0T
1Q
0\
#400000
0#
0;
0<
#420000
1#
1;
1<
0w
0!!
1O
0L
1o
1:
1P
1,
1M
0Q
#440000
0#
0;
0<
#460000
1#
1;
1<
0v
1w
0~
1!!
0R
0P
0O
1L
1n
0o
0:
19
1S
1R
1P
1+
0,
1Q
0M
0S
1T
0Q
0T
#480000
0#
0;
0<
#500000
1#
1;
1<
0w
0!!
1O
0L
1o
1:
0R
0P
1,
1M
1S
1Q
1T
#520000
0#
0;
0<
#540000
b10000 $
b10100 $
1"
b10110 $
b10111 $
1#
1J
1H
1F
1D
1?
1;
1@
1<
0G
0E
1N
1m
1k
0l
07
16
18
0}
0{
1*
1(
0)
0T
1\
1U
0S
1[
0Z
0V
1T
0\
1]
0[
0Y
1^
1\
1a
0t
1|
1Z
1V
0]
1[
1Y
0^
0\
0a
#560000
b111 $
b11 $
0"
b1 $
b0 $
0#
0J
0H
0F
0D
0?
0;
0@
0<
0N
#580000
1#
1;
1<
1t
1u
1v
1w
0|
1}
1~
1!!
0Z
0V
0U
1S
1R
1P
0O
1L
1l
0m
0n
0o
0:
09
08
17
1]
0[
1Z
1V
0S
0P
1)
0*
0+
0,
0Y
0T
0Q
0M
1^
0]
1[
1\
1Y
1T
1Q
0^
1a
0\
0a
#600000
0#
0;
0<
#620000
1#
1;
1<
0w
0!!
1O
0L
1o
1:
1P
1,
1M
0Q
#640000
0#
0;
0<
#660000
1#
1;
1<
0v
1w
0~
1!!
0R
0P
0O
1L
1n
0o
0:
19
1S
1R
1P
1+
0,
1Q
0M
0S
0T
0Q
1T
#680000
0#
0;
0<
#700000
1!
1#
1>
1;
1<
1N
1K
1I
1G
1E
0n
0l
0k
06
07
09
0!!
1~
0}
1{
0+
0)
0(
1M
1Q
0T
1\
1O
0L
0P
1S
0[
1P
0M
0Q
1T
0\
1Q
0u
0t
0w
1}
1|
1!!
0S
0V
0O
1L
0P
0T
0Y
1M
0Q
#720000
0!
0#
0>
0;
0<
0N
#740000
1#
1;
1<
1w
0!!
1O
0L
1o
1:
1P
1,
0M
1Q
#760000
0#
0;
0<
#780000
1#
1;
1<
1v
0w
0~
1!!
0R
0P
0O
1L
1n
0o
0:
19
1S
1R
1P
1+
0,
0Q
1M
0S
1T
1Q
0T
#800000
0#
0;
0<
#820000
1#
1;
1<
1w
0!!
1O
0L
1o
1:
0R
0P
1,
0M
1S
0Q
1T
#840000
0#
0;
0<
#860000
1#
1;
1<
1u
0v
0w
0}
1~
1!!
1U
0S
1R
1P
0O
1L
1m
0n
0o
0:
09
18
1V
0U
1S
0P
1*
0+
0,
0T
1Q
1M
0V
1Y
1T
0Q
0Y
#880000
0#
0;
0<
#900000
1#
1;
1<
1w
0!!
1O
0L
1o
1:
1P
1,
0M
1Q
#920000
0#
0;
0<
#940000
1#
1;
1<
1v
0w
0~
1!!
0R
0P
0O
1L
1n
0o
0:
19
1U
0S
1R
1P
1+
0,
0Q
1M
1V
0U
1S
0T
1Q
0V
1Y
1T
0Y
#960000
0#
0;
0<
#980000
1#
1;
1<
1w
0!!
1O
0L
1o
1:
0R
0P
1,
0M
1U
0S
0Q
1V
0T
1Y
