CH7/SHEFT/simulation/qsim/SHEFT.msim.vcd
$comment
	File created using the following command:
		vcd file SHEFT.msim.vcd -direction
$end
$date
	Mon Nov 21 19:07:07 2022
$end
$version
	ModelSim Version 10.5b
$end
$timescale
	1ps
$end

$scope module SHEFT_vlg_vec_tst $end
$var reg 1 ! c0 $end
$var reg 1 " clk $end
$var reg 8 # d [7:0] $end
$var reg 1 $ m $end
$var reg 2 % s [1:0] $end
$var wire 1 & cn $end
$var wire 1 ' q [7] $end
$var wire 1 ( q [6] $end
$var wire 1 ) q [5] $end
$var wire 1 * q [4] $end
$var wire 1 + q [3] $end
$var wire 1 , q [2] $end
$var wire 1 - q [1] $end
$var wire 1 . q [0] $end

$scope module i1 $end
$var wire 1 / gnd $end
$var wire 1 0 vcc $end
$var wire 1 1 unknown $end
$var tri1 1 2 devclrn $end
$var tri1 1 3 devpor $end
$var tri1 1 4 devoe $end
$var wire 1 5 q[0]~output_o $end
$var wire 1 6 q[1]~output_o $end
$var wire 1 7 q[2]~output_o $end
$var wire 1 8 q[3]~output_o $end
$var wire 1 9 q[4]~output_o $end
$var wire 1 : q[5]~output_o $end
$var wire 1 ; q[6]~output_o $end
$var wire 1 < q[7]~output_o $end
$var wire 1 = cn~output_o $end
$var wire 1 > clk~input_o $end
$var wire 1 ? clk~inputclkctrl_outclk $end
$var wire 1 @ s[1]~input_o $end
$var wire 1 A s[0]~input_o $end
$var wire 1 B Equal2~0_combout $end
$var wire 1 C c0~input_o $end
$var wire 1 D m~input_o $end
$var wire 1 E Equal2~1_combout $end
$var wire 1 F reg8[7]~34_combout $end
$var wire 1 G reg8~32_combout $end
$var wire 1 H reg8[7]~7_combout $end
$var wire 1 I reg8[7]~feeder_combout $end
$var wire 1 J d[7]~input_o $end
$var wire 1 K process_0~0_combout $end
$var wire 1 L reg8~21_combout $end
$var wire 1 M reg8~22_combout $end
$var wire 1 N reg8[6]~38_combout $end
$var wire 1 O reg8[6]~6_combout $end
$var wire 1 P reg8[6]~feeder_combout $end
$var wire 1 Q d[6]~input_o $end
$var wire 1 R reg8~30_combout $end
$var wire 1 S reg8~33_combout $end
$var wire 1 T reg8[5]~5_combout $end
$var wire 1 U d[5]~input_o $end
$var wire 1 V reg8~28_combout $end
$var wire 1 W reg8~31_combout $end
$var wire 1 X reg8[4]~4_combout $end
$var wire 1 Y d[4]~input_o $end
$var wire 1 Z reg8~26_combout $end
$var wire 1 [ reg8~29_combout $end
$var wire 1 \ reg8[3]~3_combout $end
$var wire 1 ] d[3]~input_o $end
$var wire 1 ^ reg8~24_combout $end
$var wire 1 _ reg8~27_combout $end
$var wire 1 ` reg8[2]~2_combout $end
$var wire 1 a d[2]~input_o $end
$var wire 1 b reg8~23_combout $end
$var wire 1 c reg8~25_combout $end
$var wire 1 d reg8[1]~1_combout $end
$var wire 1 e d[1]~input_o $end
$var wire 1 f reg8~20_combout $end
$var wire 1 g reg8[0]~37_combout $end
$var wire 1 h reg8[0]~0_combout $end
$var wire 1 i reg8[0]~feeder_combout $end
$var wire 1 j d[0]~input_o $end
$var wire 1 k reg8[8]~35_combout $end
$var wire 1 l reg8[8]~36_combout $end
$var wire 1 m reg8 [8] $end
$var wire 1 n reg8 [7] $end
$var wire 1 o reg8 [6] $end
$var wire 1 p reg8 [5] $end
$var wire 1 q reg8 [4] $end
$var wire 1 r reg8 [3] $end
$var wire 1 s reg8 [2] $end
$var wire 1 t reg8 [1] $end
$var wire 1 u reg8 [0] $end
$upscope $end
$upscope $end
$enddefinitions $end
#0
$dumpvars
0!
0"
b1100110 #
1$
b11 %
0&
0.
0-
0,
0+
0*
0)
0(
0'
0/
10
x1
12
13
14
05
06
07
08
09
0:
0;
0<
0=
0>
0?
1@
1A
0B
0C
1D
0E
0F
0G
0H
0I
0J
1K
0L
0M
0N
0O
0P
1Q
0R
0S
0T
1U
0V
0W
0X
0Y
0Z
0[
0\
0]
0^
0_
0`
1a
0b
0c
0d
1e
0f
1g
0h
0i
0j
0k
0l
0u
0t
0s
0r
0q
0p
0o
0n
0m
$end
#120000
1"
1>
1?
1t
1s
1p
1o
1;
1:
17
16
1f
1b
1V
1R
1-
1,
1)
1(
1_
1c
1S
1O
1`
1d
1T
1P
#200000
b1 %
b0 %
0$
0A
0@
0D
0K
#240000
0"
0>
0?
#360000
b100110 #
b110 #
b10 #
b0 #
1"
0e
0a
0U
0Q
1>
1?
#480000
b1 %
0"
1A
0>
0?
0b
1^
0V
1G
0c
1[
0S
1H
0d
1\
0T
1I
#600000
1"
1>
1?
0t
1r
0p
1n
1<
0:
18
06
0f
1Z
0R
1L
0-
1+
0)
1'
1l
0_
1W
0O
1M
1h
0`
1X
0P
1i
#720000
0"
0>
0?
#840000
1"
1>
1?
1m
1u
0s
1q
0o
0;
19
07
15
1=
1b
0^
1V
0G
1&
1.
0,
1*
0(
1c
0[
1S
0H
1d
0\
1T
0I
#960000
0"
0>
0?
#1040000
b11 %
b10 %
0A
1@
1k
0g
0b
1^
0V
1N
1G
1B
0l
0h
0c
1[
0S
1O
1H
1F
1l
1`
0X
0d
1\
0T
0i
1P
1I
#1080000
1"
1>
1?
0u
1s
0q
1o
1;
09
17
05
0k
0M
1f
0Z
1R
0.
1,
0*
1(
0H
1_
0W
0l
1d
0\
1T
0I
#1200000
0"
0>
0?
#1320000
1"
1>
1?
0m
1t
0r
1p
0n
0<
1:
08
16
0=
1g
1b
0^
1V
0N
0L
0G
0&
1-
0+
1)
0'
1h
1c
0[
1S
0O
0`
1X
1i
0P
#1440000
1$
b0 %
b1 %
0"
1D
1A
0@
0>
0?
0F
0b
1^
0V
1G
0B
1H
0c
1[
0S
0h
1O
1`
0X
1I
0d
1\
0T
0i
1P
#1560000
1"
1>
1?
0t
1r
0p
1n
1<
0:
18
06
0f
1Z
0R
0-
1+
0)
1'
1l
0_
1W
0O
0`
1X
0P
#1680000
0"
0>
0?
#1800000
1"
1>
1?
1m
0s
1q
0o
0;
19
07
1=
0^
1V
0G
1&
0,
1*
0(
0[
1S
0H
0\
1T
0I
#1920000
0"
0>
0?
#2040000
1"
1>
1?
0r
1p
0n
0<
1:
08
0Z
1R
0+
1)
0'
0l
0W
1O
0X
1P
#2120000
b11 %
b10 %
0A
1@
0g
1Z
0R
1E
1B
1_
0O
1[
0S
1\
0T
1X
0P
#2160000
0"
0>
0?
#2280000
1"
1>
1?
0m
1r
0p
0:
18
0=
1^
0V
0&
1+
0)
1c
0[
1`
0X
#2400000
0"
0>
0?
#2480000
1!
1C
1L
1F
1H
1I
#2520000
1"
1>
1?
1s
0q
1n
1<
09
17
1f
0Z
1N
1G
1,
0*
1'
0_
1O
1S
1d
0\
1P
#2640000
0"
0>
0?
#2760000
1"
1>
1?
1t
0r
1o
1;
08
16
1g
1b
0^
1R
1-
0+
1(
1h
0c
1W
0`
1T
1i
#2880000
0"
0>
0?
#3000000
1"
1>
1?
1u
0s
1p
1:
07
15
1k
1M
0f
1V
1.
0,
1)
1[
1l
0d
1X
#3080000
0$
b0 %
0!
0D
0@
0C
0F
0E
0k
0N
0B
1c
0[
0W
0l
1\
1d
0\
0X
#3120000
0"
0>
0?
#3240000
1"
1>
1?
#3360000
0"
0>
0?
#3480000
1"
1>
1?
#3600000
0"
0>
0?
#3720000
1"
1>
1?
#3840000
0"
0>
0?
#3960000
1"
1>
1?
#4080000
0"
0>
0?
#4200000
1"
1>
1?
#4320000
0"
0>
0?
#4440000
1"
1>
1?
#4560000
0"
0>
0?
#4680000
1"
1>
1?
#4800000
0"
0>
0?
#4920000
1"
1>
1?
#5040000
0"
0>
0?
#5160000
1"
1>
1?
#5280000
0"
0>
0?
#5400000
1"
1>
1?
#5520000
0"
0>
0?
#5640000
1"
1>
1?
#5760000
0"
0>
0?
#5880000
1"
1>
1?
#6000000
0"
0>
0?
#6120000
1"
1>
1?
#6240000
0"
0>
0?
#6360000
1"
1>
1?
#6480000
0"
0>
0?
#6600000
1"
1>
1?
#6720000
0"
0>
0?
#6840000
1"
1>
1?
#6960000
0"
0>
0?
#7080000
1"
1>
1?
#7200000
0"
0>
0?
#7320000
1"
1>
1?
#7440000
0"
0>
0?
#7560000
1"
1>
1?
#7680000
0"
0>
0?
#7800000
1"
1>
1?
#7920000
0"
0>
0?
#8040000
1"
1>
1?
#8160000
0"
0>
0?
#8280000
1"
1>
1?
#8400000
0"
0>
0?
#8520000
1"
1>
1?
#8640000
0"
0>
0?
#8760000
1"
1>
1?
#8880000
0"
0>
0?
#9000000
1"
1>
1?
#9120000
0"
0>
0?
#9240000
1"
1>
1?
#9360000
0"
0>
0?
#9480000
1"
1>
1?
#9600000
0"
0>
0?
#9720000
1"
1>
1?
#9840000
0"
0>
0?
#9960000
1"
1>
1?
#10080000
0"
0>
0?
#10200000
1"
1>
1?
#10320000
0"
0>
0?
#10440000
1"
1>
1?
#10560000
0"
0>
0?
#10680000
1"
1>
1?
#10800000
0"
0>
0?
#10920000
1"
1>
1?
#11040000
0"
0>
0?
#11160000
1"
1>
1?
#11280000
0"
0>
0?
#11400000
1"
1>
1?
#11520000
0"
0>
0?
#11640000
1"
1>
1?
#11760000
0"
0>
0?
#11880000
1"
1>
1?
#12000000
0"
0>
0?
#12120000
1"
1>
1?
#12240000
0"
0>
0?
#12360000
1"
1>
1?
#12480000
0"
0>
0?
#12600000
1"
1>
1?
#12720000
0"
0>
0?
#12840000
1"
1>
1?
#12960000
0"
0>
0?
#13080000
1"
1>
1?
#13200000
0"
0>
0?
#13320000
1"
1>
1?
#13440000
0"
0>
0?
#13560000
1"
1>
1?
#13680000
0"
0>
0?
#13800000
1"
1>
1?
#13920000
0"
0>
0?
#14040000
1"
1>
1?
#14160000
0"
0>
0?
#14280000
1"
1>
1?
#14400000
0"
0>
0?
#14520000
1"
1>
1?
#14640000
0"
0>
0?
#14760000
1"
1>
1?
#14880000
0"
0>
0?
#15000000
1"
1>
1?
#15120000
0"
0>
0?
#15240000
1"
1>
1?
#15360000
0"
0>
0?
#15480000
1"
1>
1?
#15600000
0"
0>
0?
#15720000
1"
1>
1?
#15840000
0"
0>
0?
#15960000
1"
1>
1?
#16080000
0"
0>
0?
#16200000
1"
1>
1?
#16320000
0"
0>
0?
#16440000
1"
1>
1?
#16560000
0"
0>
0?
#16680000
1"
1>
1?
#16800000
0"
0>
0?
#16920000
1"
1>
1?
#17040000
0"
0>
0?
#17160000
1"
1>
1?
#17280000
0"
0>
0?
#17400000
1"
1>
1?
#17520000
0"
0>
0?
#17640000
1"
1>
1?
#17760000
0"
0>
0?
#17880000
1"
1>
1?
#18000000
0"
0>
0?
#18120000
1"
1>
1?
#18240000
0"
0>
0?
#18360000
1"
1>
1?
#18480000
0"
0>
0?
#18600000
1"
1>
1?
#18720000
0"
0>
0?
#18840000
1"
1>
1?
#18960000
0"
0>
0?
#19080000
1"
1>
1?
#19200000
0"
0>
0?
#19320000
1"
1>
1?
#19440000
0"
0>
0?
#19560000
1"
1>
1?
#19680000
0"
0>
0?
#19800000
1"
1>
1?
#19920000
0"
0>
0?
#20040000
1"
1>
1?
#20160000
0"
0>
0?
#20280000
1"
1>
1?
#20400000
0"
0>
0?
#20520000
1"
1>
1?
#20640000
0"
0>
0?
#20760000
1"
1>
1?
#20880000
0"
0>
0?
#21000000
1"
1>
1?
#21120000
0"
0>
0?
#21240000
1"
1>
1?
#21360000
0"
0>
0?
#21480000
1"
1>
1?
#21600000
0"
0>
0?
#21720000
1"
1>
1?
#21840000
0"
0>
0?
#21960000
1"
1>
1?
#22080000
0"
0>
0?
#22200000
1"
1>
1?
#22320000
0"
0>
0?
#22440000
1"
1>
1?
#22560000
0"
0>
0?
#22680000
1"
1>
1?
#22800000
0"
0>
0?
#22920000
1"
1>
1?
#23040000
0"
0>
0?
#23160000
1"
1>
1?
#23280000
0"
0>
0?
#23400000
1"
1>
1?
#23520000
0"
0>
0?
#23640000
1"
1>
1?
#23760000
0"
0>
0?
#23880000
1"
1>
1?
#24000000
0"
0>
0?
#24120000
1"
1>
1?
#24240000
0"
0>
0?
#24360000
1"
1>
1?
#24480000
0"
0>
0?
#24600000
1"
1>
1?
#24720000
0"
0>
0?
#24840000
1"
1>
1?
#24960000
0"
0>
0?
#25080000
1"
1>
1?
#25200000
0"
0>
0?
#25320000
1"
1>
1?
#25440000
0"
0>
0?
#25560000
1"
1>
1?
#25680000
0"
0>
0?
#25800000
1"
1>
1?
#25920000
0"
0>
0?
#26040000
1"
1>
1?
#26160000
0"
0>
0?
#26280000
1"
1>
1?
#26400000
0"
0>
0?
#26520000
1"
1>
1?
#26640000
0"
0>
0?
#26760000
1"
1>
1?
#26880000
0"
0>
0?
#27000000
1"
1>
1?
#27120000
0"
0>
0?
#27240000
1"
1>
1?
#27360000
0"
0>
0?
#27480000
1"
1>
1?
#27600000
0"
0>
0?
#27720000
1"
1>
1?
#27840000
0"
0>
0?
#27960000
1"
1>
1?
#28080000
0"
0>
0?
#28200000
1"
1>
1?
#28320000
0"
0>
0?
#28440000
1"
1>
1?
#28560000
0"
0>
0?
#28680000
1"
1>
1?
#28800000
0"
0>
0?
#28920000
1"
1>
1?
#29040000
0"
0>
0?
#29160000
1"
1>
1?
#29280000
0"
0>
0?
#29400000
1"
1>
1?
#29520000
0"
0>
0?
#29640000
1"
1>
1?
#29760000
0"
0>
0?
#29880000
1"
1>
1?
#30000000
0"
0>
0?
#30120000
1"
1>
1?
#30240000
0"
0>
0?
#30360000
1"
1>
1?
#30480000
0"
0>
0?
#30600000
1"
1>
1?
#30720000
0"
0>
0?
#30840000
1"
1>
1?
#30960000
0"
0>
0?
#31080000
1"
1>
1?
#31200000
0"
0>
0?
#31320000
1"
1>
1?
#31440000
0"
0>
0?
#31560000
1"
1>
1?
#31680000
0"
0>
0?
#31800000
1"
1>
1?
#31920000
0"
0>
0?
#32040000
1"
1>
1?
#32160000
0"
0>
0?
#32280000
1"
1>
1?
#32400000
0"
0>
0?
#32520000
1"
1>
1?
#32640000
0"
0>
0?
#32760000
1"
1>
1?
#32880000
0"
0>
0?
#33000000
1"
1>
1?
#33120000
0"
0>
0?
#33240000
1"
1>
1?
#33360000
0"
0>
0?
#33480000
1"
1>
1?
#33600000
0"
0>
0?
#33720000
1"
1>
1?
#33840000
0"
0>
0?
#33960000
1"
1>
1?
#34080000
0"
0>
0?
#34200000
1"
1>
1?
#34320000
0"
0>
0?
#34440000
1"
1>
1?
#34560000
0"
0>
0?
#34680000
1"
1>
1?
#34800000
0"
0>
0?
#34920000
1"
1>
1?
#35040000
0"
0>
0?
#35160000
1"
1>
1?
#35280000
0"
0>
0?
#35400000
1"
1>
1?
#35520000
0"
0>
0?
#35640000
1"
1>
1?
#35760000
0"
0>
0?
#35880000
1"
1>
1?
#36000000
0"
0>
0?
#36120000
1"
1>
1?
#36240000
0"
0>
0?
#36360000
1"
1>
1?
#36480000
0"
0>
0?
#36600000
1"
1>
1?
#36720000
0"
0>
0?
#36840000
1"
1>
1?
#36960000
0"
0>
0?
#37080000
1"
1>
1?
#37200000
0"
0>
0?
#37320000
1"
1>
1?
#37440000
0"
0>
0?
#37560000
1"
1>
1?
#37680000
0"
0>
0?
#37800000
1"
1>
1?
#37920000
0"
0>
0?
#38040000
1"
1>
1?
#38160000
0"
0>
0?
#38280000
1"
1>
1?
#38400000
0"
0>
0?
#38520000
1"
1>
1?
#38640000
0"
0>
0?
#38760000
1"
1>
1?
#38880000
0"
0>
0?
#39000000
1"
1>
1?
#39120000
0"
0>
0?
#39240000
1"
1>
1?
#39360000
0"
0>
0?
#39480000
1"
1>
1?
#39600000
0"
0>
0?
#39720000
1"
1>
1?
#39840000
0"
0>
0?
#39960000
1"
1>
1?
#40080000
0"
0>
0?
#40200000
1"
1>
1?
#40320000
0"
0>
0?
#40440000
1"
1>
1?
#40560000
0"
0>
0?
#40680000
1"
1>
1?
#40800000
0"
0>
0?
#40920000
1"
1>
1?
#41040000
0"
0>
0?
#41160000
1"
1>
1?
#41280000
0"
0>
0?
#41400000
1"
1>
1?
#41520000
0"
0>
0?
#41640000
1"
1>
1?
#41760000
0"
0>
0?
#41880000
1"
1>
1?
#42000000
0"
0>
0?
#42120000
1"
1>
1?
#42240000
0"
0>
0?
#42360000
1"
1>
1?
#42480000
0"
0>
0?
#42600000
1"
1>
1?
#42720000
0"
0>
0?
#42840000
1"
1>
1?
#42960000
0"
0>
0?
#43080000
1"
1>
1?
#43200000
0"
0>
0?
#43320000
1"
1>
1?
#43440000
0"
0>
0?
#43560000
1"
1>
1?
#43680000
0"
0>
0?
#43800000
1"
1>
1?
#43920000
0"
0>
0?
#44040000
1"
1>
1?
#44160000
0"
0>
0?
#44280000
1"
1>
1?
#44400000
0"
0>
0?
#44520000
1"
1>
1?
#44640000
0"
0>
0?
#44760000
1"
1>
1?
#44880000
0"
0>
0?
#45000000
1"
1>
1?
#45120000
0"
0>
0?
#45240000
1"
1>
1?
#45360000
0"
0>
0?
#45480000
1"
1>
1?
#45600000
0"
0>
0?
#45720000
1"
1>
1?
#45840000
0"
0>
0?
#45960000
1"
1>
1?
#46080000
0"
0>
0?
#46200000
1"
1>
1?
#46320000
0"
0>
0?
#46440000
1"
1>
1?
#46560000
0"
0>
0?
#46680000
1"
1>
1?
#46800000
0"
0>
0?
#46920000
1"
1>
1?
#47040000
0"
0>
0?
#47160000
1"
1>
1?
#47280000
0"
0>
0?
#47400000
1"
1>
1?
#47520000
0"
0>
0?
#47640000
1"
1>
1?
#47760000
0"
0>
0?
#47880000
1"
1>
1?
#48000000
0"
0>
0?
#48120000
1"
1>
1?
#48240000
0"
0>
0?
#48360000
1"
1>
1?
#48480000
0"
0>
0?
#48600000
1"
1>
1?
#48720000
0"
0>
0?
#48840000
1"
1>
1?
#48960000
0"
0>
0?
#49080000
1"
1>
1?
#49200000
0"
0>
0?
#49320000
1"
1>
1?
#49440000
0"
0>
0?
#49560000
1"
1>
1?
#49680000
0"
0>
0?
#49800000
1"
1>
1?
#49920000
0"
0>
0?
