CH5/PC_AR_RAM/simulation/qsim/PC_AR_RAM.msim.vcd
$comment
	File created using the following command:
		vcd file PC_AR_RAM.msim.vcd -direction
$end
$date
	Tue Nov 01 11:57:31 2022
$end
$version
	ModelSim Version 10.5b
$end
$timescale
	1ps
$end

$scope module PC_AR_RAM_vlg_vec_tst $end
$var reg 1 ! clr $end
$var reg 8 " D [7:0] $end
$var reg 8 # data [7:0] $end
$var reg 1 $ load $end
$var reg 1 % PC_B $end
$var reg 1 & T1 $end
$var reg 1 ' T2 $end
$var reg 1 ( T4 $end
$var reg 1 ) we $end
$var wire 1 * q [7] $end
$var wire 1 + q [6] $end
$var wire 1 , q [5] $end
$var wire 1 - q [4] $end
$var wire 1 . q [3] $end
$var wire 1 / q [2] $end
$var wire 1 0 q [1] $end
$var wire 1 1 q [0] $end

$scope module i1 $end
$var wire 1 2 gnd $end
$var wire 1 3 vcc $end
$var wire 1 4 unknown $end
$var tri1 1 5 devclrn $end
$var tri1 1 6 devpor $end
$var tri1 1 7 devoe $end
$var wire 1 8 q[7]~output_o $end
$var wire 1 9 q[6]~output_o $end
$var wire 1 : q[5]~output_o $end
$var wire 1 ; q[4]~output_o $end
$var wire 1 < q[3]~output_o $end
$var wire 1 = q[2]~output_o $end
$var wire 1 > q[1]~output_o $end
$var wire 1 ? q[0]~output_o $end
$var wire 1 @ we~input_o $end
$var wire 1 A T1~input_o $end
$var wire 1 B T1~inputclkctrl_outclk $end
$var wire 1 C data[0]~input_o $end
$var wire 1 D T4~input_o $end
$var wire 1 E T4~inputclkctrl_outclk $end
$var wire 1 F load~input_o $end
$var wire 1 G PC_B~input_o $end
$var wire 1 H clr~input_o $end
$var wire 1 I inst|inst3|$00000|auto_generated|result_node[0]~30_combout $end
$var wire 1 J T2~input_o $end
$var wire 1 K T2~inputclkctrl_outclk $end
$var wire 1 L D[0]~input_o $end
$var wire 1 M load~inputclkctrl_outclk $end
$var wire 1 N inst|inst4|LPM_COUNTER_component|auto_generated|latch_signal[0]~8_combout $end
$var wire 1 O inst|inst4|LPM_COUNTER_component|auto_generated|counter_comb_bita0~combout $end
$var wire 1 P inst|inst4|LPM_COUNTER_component|auto_generated|counter_reg_bit[0]~0_combout $end
$var wire 1 Q inst|inst4|LPM_COUNTER_component|auto_generated|aclr_actual~0_combout $end
$var wire 1 R inst|inst3|$00000|auto_generated|result_node[0]~14_combout $end
$var wire 1 S inst|inst3|$00000|auto_generated|result_node[0]~15_combout $end
$var wire 1 T inst|inst|19~q $end
$var wire 1 U D[1]~input_o $end
$var wire 1 V inst|inst4|LPM_COUNTER_component|auto_generated|latch_signal[1]~9_combout $end
$var wire 1 W inst|inst4|LPM_COUNTER_component|auto_generated|counter_comb_bita0~COUT $end
$var wire 1 X inst|inst4|LPM_COUNTER_component|auto_generated|counter_comb_bita1~combout $end
$var wire 1 Y inst|inst4|LPM_COUNTER_component|auto_generated|counter_reg_bit[1]~1_combout $end
$var wire 1 Z inst|inst3|$00000|auto_generated|result_node[1]~16_combout $end
$var wire 1 [ inst|inst3|$00000|auto_generated|result_node[1]~17_combout $end
$var wire 1 \ inst|inst|18~q $end
$var wire 1 ] D[2]~input_o $end
$var wire 1 ^ inst|inst4|LPM_COUNTER_component|auto_generated|latch_signal[2]~10_combout $end
$var wire 1 _ inst|inst4|LPM_COUNTER_component|auto_generated|counter_comb_bita1~COUT $end
$var wire 1 ` inst|inst4|LPM_COUNTER_component|auto_generated|counter_comb_bita2~combout $end
$var wire 1 a inst|inst4|LPM_COUNTER_component|auto_generated|counter_reg_bit[2]~2_combout $end
$var wire 1 b inst|inst3|$00000|auto_generated|result_node[2]~18_combout $end
$var wire 1 c inst|inst3|$00000|auto_generated|result_node[2]~19_combout $end
$var wire 1 d inst|inst|17~q $end
$var wire 1 e D[3]~input_o $end
$var wire 1 f inst|inst3|$00000|auto_generated|result_node[3]~20_combout $end
$var wire 1 g inst|inst4|LPM_COUNTER_component|auto_generated|latch_signal[3]~11_combout $end
$var wire 1 h inst|inst4|LPM_COUNTER_component|auto_generated|counter_comb_bita2~COUT $end
$var wire 1 i inst|inst4|LPM_COUNTER_component|auto_generated|counter_comb_bita3~combout $end
$var wire 1 j inst|inst4|LPM_COUNTER_component|auto_generated|counter_reg_bit[3]~3_combout $end
$var wire 1 k inst|inst3|$00000|auto_generated|result_node[3]~21_combout $end
$var wire 1 l inst|inst|16~q $end
$var wire 1 m D[4]~input_o $end
$var wire 1 n inst|inst4|LPM_COUNTER_component|auto_generated|latch_signal[4]~12_combout $end
$var wire 1 o inst|inst4|LPM_COUNTER_component|auto_generated|counter_comb_bita3~COUT $end
$var wire 1 p inst|inst4|LPM_COUNTER_component|auto_generated|counter_comb_bita4~combout $end
$var wire 1 q inst|inst4|LPM_COUNTER_component|auto_generated|counter_reg_bit[4]~4_combout $end
$var wire 1 r inst|inst3|$00000|auto_generated|result_node[4]~22_combout $end
$var wire 1 s inst|inst3|$00000|auto_generated|result_node[4]~23_combout $end
$var wire 1 t inst|inst|15~q $end
$var wire 1 u D[5]~input_o $end
$var wire 1 v inst|inst4|LPM_COUNTER_component|auto_generated|latch_signal[5]~13_combout $end
$var wire 1 w inst|inst4|LPM_COUNTER_component|auto_generated|counter_comb_bita4~COUT $end
$var wire 1 x inst|inst4|LPM_COUNTER_component|auto_generated|counter_comb_bita5~combout $end
$var wire 1 y inst|inst4|LPM_COUNTER_component|auto_generated|counter_reg_bit[5]~5_combout $end
$var wire 1 z inst|inst3|$00000|auto_generated|result_node[5]~24_combout $end
$var wire 1 { inst|inst3|$00000|auto_generated|result_node[5]~25_combout $end
$var wire 1 | inst|inst|14~q $end
$var wire 1 } D[6]~input_o $end
$var wire 1 ~ inst|inst3|$00000|auto_generated|result_node[6]~26_combout $end
$var wire 1 !! inst|inst4|LPM_COUNTER_component|auto_generated|latch_signal[6]~14_combout $end
$var wire 1 "! inst|inst4|LPM_COUNTER_component|auto_generated|counter_comb_bita5~COUT $end
$var wire 1 #! inst|inst4|LPM_COUNTER_component|auto_generated|counter_comb_bita6~combout $end
$var wire 1 $! inst|inst4|LPM_COUNTER_component|auto_generated|counter_reg_bit[6]~6_combout $end
$var wire 1 %! inst|inst3|$00000|auto_generated|result_node[6]~27_combout $end
$var wire 1 &! inst|inst|13~q $end
$var wire 1 '! D[7]~input_o $end
$var wire 1 (! inst|inst3|$00000|auto_generated|result_node[7]~28_combout $end
$var wire 1 )! inst|inst4|LPM_COUNTER_component|auto_generated|latch_signal[7]~15_combout $end
$var wire 1 *! inst|inst4|LPM_COUNTER_component|auto_generated|counter_comb_bita6~COUT $end
$var wire 1 +! inst|inst4|LPM_COUNTER_component|auto_generated|counter_comb_bita7~combout $end
$var wire 1 ,! inst|inst4|LPM_COUNTER_component|auto_generated|counter_reg_bit[7]~7_combout $end
$var wire 1 -! inst|inst3|$00000|auto_generated|result_node[7]~29_combout $end
$var wire 1 .! inst|inst|12~q $end
$var wire 1 /! data[1]~input_o $end
$var wire 1 0! data[2]~input_o $end
$var wire 1 1! data[3]~input_o $end
$var wire 1 2! data[4]~input_o $end
$var wire 1 3! data[5]~input_o $end
$var wire 1 4! data[6]~input_o $end
$var wire 1 5! data[7]~input_o $end
$var wire 1 6! inst1|sram|ram_block|auto_generated|q_a [7] $end
$var wire 1 7! inst1|sram|ram_block|auto_generated|q_a [6] $end
$var wire 1 8! inst1|sram|ram_block|auto_generated|q_a [5] $end
$var wire 1 9! inst1|sram|ram_block|auto_generated|q_a [4] $end
$var wire 1 :! inst1|sram|ram_block|auto_generated|q_a [3] $end
$var wire 1 ;! inst1|sram|ram_block|auto_generated|q_a [2] $end
$var wire 1 <! inst1|sram|ram_block|auto_generated|q_a [1] $end
$var wire 1 =! inst1|sram|ram_block|auto_generated|q_a [0] $end
$var wire 1 >! inst|inst4|LPM_COUNTER_component|auto_generated|counter_reg_bit [7] $end
$var wire 1 ?! inst|inst4|LPM_COUNTER_component|auto_generated|counter_reg_bit [6] $end
$var wire 1 @! inst|inst4|LPM_COUNTER_component|auto_generated|counter_reg_bit [5] $end
$var wire 1 A! inst|inst4|LPM_COUNTER_component|auto_generated|counter_reg_bit [4] $end
$var wire 1 B! inst|inst4|LPM_COUNTER_component|auto_generated|counter_reg_bit [3] $end
$var wire 1 C! inst|inst4|LPM_COUNTER_component|auto_generated|counter_reg_bit [2] $end
$var wire 1 D! inst|inst4|LPM_COUNTER_component|auto_generated|counter_reg_bit [1] $end
$var wire 1 E! inst|inst4|LPM_COUNTER_component|auto_generated|counter_reg_bit [0] $end
$var wire 1 F! inst|inst4|LPM_COUNTER_component|auto_generated|pre_hazard [7] $end
$var wire 1 G! inst|inst4|LPM_COUNTER_component|auto_generated|pre_hazard [6] $end
$var wire 1 H! inst|inst4|LPM_COUNTER_component|auto_generated|pre_hazard [5] $end
$var wire 1 I! inst|inst4|LPM_COUNTER_component|auto_generated|pre_hazard [4] $end
$var wire 1 J! inst|inst4|LPM_COUNTER_component|auto_generated|pre_hazard [3] $end
$var wire 1 K! inst|inst4|LPM_COUNTER_component|auto_generated|pre_hazard [2] $end
$var wire 1 L! inst|inst4|LPM_COUNTER_component|auto_generated|pre_hazard [1] $end
$var wire 1 M! inst|inst4|LPM_COUNTER_component|auto_generated|pre_hazard [0] $end
$var wire 1 N! inst1|sram|ram_block|auto_generated|ram_block1a0_PORTADATAOUT_bus [17] $end
$var wire 1 O! inst1|sram|ram_block|auto_generated|ram_block1a0_PORTADATAOUT_bus [16] $end
$var wire 1 P! inst1|sram|ram_block|auto_generated|ram_block1a0_PORTADATAOUT_bus [15] $end
$var wire 1 Q! inst1|sram|ram_block|auto_generated|ram_block1a0_PORTADATAOUT_bus [14] $end
$var wire 1 R! inst1|sram|ram_block|auto_generated|ram_block1a0_PORTADATAOUT_bus [13] $end
$var wire 1 S! inst1|sram|ram_block|auto_generated|ram_block1a0_PORTADATAOUT_bus [12] $end
$var wire 1 T! inst1|sram|ram_block|auto_generated|ram_block1a0_PORTADATAOUT_bus [11] $end
$var wire 1 U! inst1|sram|ram_block|auto_generated|ram_block1a0_PORTADATAOUT_bus [10] $end
$var wire 1 V! inst1|sram|ram_block|auto_generated|ram_block1a0_PORTADATAOUT_bus [9] $end
$var wire 1 W! inst1|sram|ram_block|auto_generated|ram_block1a0_PORTADATAOUT_bus [8] $end
$var wire 1 X! inst1|sram|ram_block|auto_generated|ram_block1a0_PORTADATAOUT_bus [7] $end
$var wire 1 Y! inst1|sram|ram_block|auto_generated|ram_block1a0_PORTADATAOUT_bus [6] $end
$var wire 1 Z! inst1|sram|ram_block|auto_generated|ram_block1a0_PORTADATAOUT_bus [5] $end
$var wire 1 [! inst1|sram|ram_block|auto_generated|ram_block1a0_PORTADATAOUT_bus [4] $end
$var wire 1 \! inst1|sram|ram_block|auto_generated|ram_block1a0_PORTADATAOUT_bus [3] $end
$var wire 1 ]! inst1|sram|ram_block|auto_generated|ram_block1a0_PORTADATAOUT_bus [2] $end
$var wire 1 ^! inst1|sram|ram_block|auto_generated|ram_block1a0_PORTADATAOUT_bus [1] $end
$var wire 1 _! inst1|sram|ram_block|auto_generated|ram_block1a0_PORTADATAOUT_bus [0] $end
$upscope $end
$upscope $end
$enddefinitions $end
#0
$dumpvars
1!
b0 "
b0 #
0$
0%
1&
0'
1(
0)
01
00
0/
0.
0-
0,
0+
0*
02
13
x4
15
16
17
08
09
0:
0;
0<
0=
0>
0?
0@
1A
1B
0C
1D
1E
0F
0G
1H
0I
0J
0K
0L
0M
1N
1O
1P
1Q
0R
0S
0T
0U
1V
0W
0X
0Y
0Z
0[
0\
0]
1^
1_
0`
0a
0b
0c
0d
0e
0f
1g
0h
0i
0j
0k
0l
0m
1n
1o
0p
0q
0r
0s
0t
0u
1v
0w
0x
0y
0z
0{
0|
0}
0~
1!!
1"!
0#!
0$!
0%!
0&!
0'!
0(!
1)!
0*!
0+!
0,!
0-!
0.!
0/!
00!
01!
02!
03!
04!
05!
0=!
0<!
0;!
0:!
09!
08!
07!
06!
0E!
0D!
0C!
0B!
0A!
0@!
0?!
0>!
1M!
1L!
1K!
1J!
1I!
1H!
1G!
1F!
0_!
0^!
0]!
0\!
0[!
0Z!
0Y!
0X!
0W!
0V!
0U!
0T!
0S!
0R!
0Q!
0P!
0O!
0N!
$end
#15000
0&
0(
0A
0D
0B
0E
#25000
1'
1J
1K
#40000
1&
1(
1A
1D
1B
1E
#50000
0!
0'
0H
0J
0K
0Q
1I
#65000
0&
0(
0A
0D
0B
0E
#75000
1'
1J
1K
1E!
0M!
1S
1W
0O
1X
0P
1Y
#90000
1&
1(
1A
1D
1B
1E
1T
#100000
0'
0J
0K
#115000
0&
0(
0A
0D
0B
0E
#125000
1'
1J
1K
1D!
0E!
0L!
1M!
1[
0S
0_
0X
0W
1O
1`
1_
1X
0Y
1P
0`
1a
1Y
0a
#140000
1&
1(
1A
1D
1B
1E
1\
0T
#140001
1[!
19!
1;
1-
#150000
0'
0J
0K
#165000
0&
0(
0A
0D
0B
0E
#175000
1'
1J
1K
1E!
0M!
1S
1W
0O
0_
0X
0P
1`
0Y
1a
#190000
1&
1(
1A
1D
1B
1E
1T
#190001
1^!
1\!
0[!
1<!
1:!
09!
0;
1<
1>
10
1.
0-
#200000
0'
0J
0K
#215000
0&
0(
0A
0D
0B
0E
#225000
1'
1J
1K
1C!
0D!
0E!
0K!
1L!
1M!
1c
0[
0S
1h
0`
1_
1X
0W
1O
1i
0h
1`
0X
0a
1Y
1P
0i
1j
1a
0Y
0j
#240000
1&
1(
1A
1D
1B
1E
1d
0\
0T
#240001
0^!
0\!
1Z!
0<!
0:!
18!
1:
0<
0>
00
0.
1,
#250000
0'
0J
0K
#265000
0&
0(
0A
0D
0B
0E
#275000
1'
1J
1K
1E!
0M!
1S
1W
0O
1X
0P
1Y
#290000
1&
1(
1A
1D
1B
1E
1T
#290001
1_!
1^!
1\!
0Z!
1=!
1<!
1:!
08!
0:
1<
1>
1?
11
10
1.
0,
#300000
0'
0J
0K
#315000
0&
0(
0A
0D
0B
0E
#325000
1'
1J
1K
1D!
0E!
0L!
1M!
1[
0S
0_
0X
0W
1O
1h
0`
1_
1X
0Y
1P
1i
0h
1`
0a
1Y
0i
1j
1a
0j
#340000
1&
1(
1A
1D
1B
1E
1\
0T
#340001
0_!
0^!
0\!
1[!
1Z!
0=!
0<!
0:!
19!
18!
1:
1;
0<
0>
0?
01
00
0.
1-
1,
#350000
0'
0J
0K
#365000
0&
0(
0A
0D
0B
0E
#375000
1'
1J
1K
1E!
0M!
1S
1W
0O
0_
0X
0P
1h
0`
0Y
1i
0a
1j
#390000
1&
1(
1A
1D
1B
1E
1T
#390001
1_!
1^!
1\!
0[!
0Z!
1=!
1<!
1:!
09!
08!
0:
0;
1<
1>
1?
11
10
1.
0-
0,
#400000
0'
0J
0K
#415000
0&
0(
0A
0D
0B
0E
#425000
1'
1J
1K
1B!
0C!
0D!
0E!
0J!
1K!
1L!
1M!
1k
0c
0[
0S
0o
0i
0h
1`
1_
1X
0W
1O
1p
1o
1i
0`
0X
0j
1a
1Y
1P
0p
1q
1j
0a
0Y
0q
#440000
1&
1(
1A
1D
1B
1E
1l
0d
0\
0T
#440001
0_!
0^!
0\!
1Y!
0=!
0<!
0:!
17!
19
0<
0>
0?
01
00
0.
1+
#450000
0'
0J
0K
#465000
0&
0(
0A
0D
0B
0E
#475000
1'
1J
1K
1E!
0M!
1S
1W
0O
1X
0P
1Y
#490000
1&
1(
1A
1D
1B
1E
1T
#490001
1_!
0Y!
1=!
07!
09
1?
11
0+
#500000
0'
0J
0K
#510000
b1 "
1L
#515000
0&
0(
0A
0D
0B
0E
#525000
1'
1J
1K
1D!
0E!
0L!
1M!
1[
0S
0_
0X
0W
1O
1`
1_
1X
0Y
1P
0`
1a
1Y
0a
#540000
1&
1(
1A
1D
1B
1E
1\
0T
#540001
0_!
0=!
0?
01
#550000
b0 "
0'
0L
0J
0K
#565000
0&
0(
0A
0D
0B
0E
#575000
1'
1J
1K
1E!
0M!
1S
1W
0O
0_
0X
0P
1`
0Y
1a
#590000
1&
1(
1A
1D
1B
1E
1T
#590001
1]!
1[!
1Z!
1;!
19!
18!
1:
1;
1=
1/
1-
1,
#600000
0'
0J
0K
#615000
0&
0(
0A
0D
0B
0E
#625000
1'
1J
1K
1C!
0D!
0E!
0K!
1L!
1M!
1c
0[
0S
1h
0`
1_
1X
0W
1O
0o
0i
0h
1`
0X
0a
1Y
1P
1p
1o
1i
0j
1a
0Y
0p
1q
1j
0q
#640000
1&
1(
1A
1D
1B
1E
1d
0\
0T
#640001
0]!
0[!
0Z!
0;!
09!
08!
0:
0;
0=
0/
0-
0,
#650000
0'
0J
0K
#660000
1$
1F
1M
1Q
0I
0k
0c
0C!
0B!
1K!
1J!
0`
0i
0a
0j
#665000
0&
0(
0A
0D
0B
0E
#675000
1'
1J
1K
#690000
1&
1(
1A
1D
1B
1E
0l
0d
#700000
0$
0'
0F
0J
0M
0K
0Q
1I
#715000
0&
0(
0A
0D
0B
0E
#725000
1'
1J
1K
1E!
0M!
1S
1W
0O
1X
0P
1Y
#740000
1&
1(
1A
1D
1B
1E
1T
#750000
0'
0J
0K
#765000
0&
0(
0A
0D
0B
0E
#775000
1'
1J
1K
1D!
0E!
0L!
1M!
1[
0S
0_
0X
0W
1O
1`
1_
1X
0Y
1P
0`
1a
1Y
0a
#790000
1&
1(
1A
1D
1B
1E
1\
0T
#790001
1[!
19!
1;
1-
#800000
0'
0J
0K
#815000
0&
0(
0A
0D
0B
0E
#825000
1'
1J
1K
1E!
0M!
1S
1W
0O
0_
0X
0P
1`
0Y
1a
#840000
1&
1(
1A
1D
1B
1E
1T
#840001
1^!
1\!
0[!
1<!
1:!
09!
0;
1<
1>
10
1.
0-
#850000
0'
0J
0K
#865000
0&
0(
0A
0D
0B
0E
#875000
1'
1J
1K
1C!
0D!
0E!
0K!
1L!
1M!
1c
0[
0S
1h
0`
1_
1X
0W
1O
1i
0h
1`
0X
0a
1Y
1P
0i
1j
1a
0Y
0j
#890000
1&
1(
1A
1D
1B
1E
1d
0\
0T
#890001
0^!
0\!
1Z!
0<!
0:!
18!
1:
0<
0>
00
0.
1,
#900000
0'
0J
0K
#915000
0&
0(
0A
0D
0B
0E
#925000
1'
1J
1K
1E!
0M!
1S
1W
0O
1X
0P
1Y
#940000
1&
1(
1A
1D
1B
1E
1T
#940001
1_!
1^!
1\!
0Z!
1=!
1<!
1:!
08!
0:
1<
1>
1?
11
10
1.
0,
#950000
0'
0J
0K
#965000
0&
0(
0A
0D
0B
0E
#975000
1'
1J
1K
1D!
0E!
0L!
1M!
1[
0S
0_
0X
0W
1O
1h
0`
1_
1X
0Y
1P
1i
0h
1`
0a
1Y
0i
1j
1a
0j
#990000
1&
1(
1A
1D
1B
1E
1\
0T
#990001
0_!
0^!
0\!
1[!
1Z!
0=!
0<!
0:!
19!
18!
1:
1;
0<
0>
0?
01
00
0.
1-
1,
