CH3/ALU0/ALU/simulation/qsim/ALU.msim.vcd
$comment
	File created using the following command:
		vcd file ALU.msim.vcd -direction
$end
$date
	Mon Dec 05 12:50:33 2022
$end
$version
	ModelSim Version 10.5b
$end
$timescale
	1ps
$end

$scope module alu_vhd_vec_tst $end
$var wire 1 ! A [7] $end
$var wire 1 " A [6] $end
$var wire 1 # A [5] $end
$var wire 1 $ A [4] $end
$var wire 1 % A [3] $end
$var wire 1 & A [2] $end
$var wire 1 ' A [1] $end
$var wire 1 ( A [0] $end
$var wire 1 ) AEQB $end
$var wire 1 * B [7] $end
$var wire 1 + B [6] $end
$var wire 1 , B [5] $end
$var wire 1 - B [4] $end
$var wire 1 . B [3] $end
$var wire 1 / B [2] $end
$var wire 1 0 B [1] $end
$var wire 1 1 B [0] $end
$var wire 1 2 CN $end
$var wire 1 3 CN4 $end
$var wire 1 4 F [7] $end
$var wire 1 5 F [6] $end
$var wire 1 6 F [5] $end
$var wire 1 7 F [4] $end
$var wire 1 8 F [3] $end
$var wire 1 9 F [2] $end
$var wire 1 : F [1] $end
$var wire 1 ; F [0] $end
$var wire 1 < M $end
$var wire 1 = S [3] $end
$var wire 1 > S [2] $end
$var wire 1 ? S [1] $end
$var wire 1 @ S [0] $end

$scope module i1 $end
$var wire 1 A gnd $end
$var wire 1 B vcc $end
$var wire 1 C unknown $end
$var wire 1 D devoe $end
$var wire 1 E devclrn $end
$var wire 1 F devpor $end
$var wire 1 G ww_devoe $end
$var wire 1 H ww_devclrn $end
$var wire 1 I ww_devpor $end
$var wire 1 J ww_CN4 $end
$var wire 1 K ww_B [7] $end
$var wire 1 L ww_B [6] $end
$var wire 1 M ww_B [5] $end
$var wire 1 N ww_B [4] $end
$var wire 1 O ww_B [3] $end
$var wire 1 P ww_B [2] $end
$var wire 1 Q ww_B [1] $end
$var wire 1 R ww_B [0] $end
$var wire 1 S ww_A [7] $end
$var wire 1 T ww_A [6] $end
$var wire 1 U ww_A [5] $end
$var wire 1 V ww_A [4] $end
$var wire 1 W ww_A [3] $end
$var wire 1 X ww_A [2] $end
$var wire 1 Y ww_A [1] $end
$var wire 1 Z ww_A [0] $end
$var wire 1 [ ww_M $end
$var wire 1 \ ww_CN $end
$var wire 1 ] ww_S [3] $end
$var wire 1 ^ ww_S [2] $end
$var wire 1 _ ww_S [1] $end
$var wire 1 ` ww_S [0] $end
$var wire 1 a ww_AEQB $end
$var wire 1 b ww_F [7] $end
$var wire 1 c ww_F [6] $end
$var wire 1 d ww_F [5] $end
$var wire 1 e ww_F [4] $end
$var wire 1 f ww_F [3] $end
$var wire 1 g ww_F [2] $end
$var wire 1 h ww_F [1] $end
$var wire 1 i ww_F [0] $end
$var wire 1 j \CN4~output_o\ $end
$var wire 1 k \AEQB~output_o\ $end
$var wire 1 l \F[7]~output_o\ $end
$var wire 1 m \F[6]~output_o\ $end
$var wire 1 n \F[5]~output_o\ $end
$var wire 1 o \F[4]~output_o\ $end
$var wire 1 p \F[3]~output_o\ $end
$var wire 1 q \F[2]~output_o\ $end
$var wire 1 r \F[1]~output_o\ $end
$var wire 1 s \F[0]~output_o\ $end
$var wire 1 t \S[3]~input_o\ $end
$var wire 1 u \B[7]~input_o\ $end
$var wire 1 v \A[7]~input_o\ $end
$var wire 1 w \S[2]~input_o\ $end
$var wire 1 x \inst|52~0_combout\ $end
$var wire 1 y \A[6]~input_o\ $end
$var wire 1 z \B[6]~input_o\ $end
$var wire 1 { \S[0]~input_o\ $end
$var wire 1 | \S[1]~input_o\ $end
$var wire 1 } \inst|45~0_combout\ $end
$var wire 1 ~ \inst|51~0_combout\ $end
$var wire 1 !! \inst|78~0_combout\ $end
$var wire 1 "! \B[5]~input_o\ $end
$var wire 1 #! \A[5]~input_o\ $end
$var wire 1 $! \inst|47~0_combout\ $end
$var wire 1 %! \B[4]~input_o\ $end
$var wire 1 &! \A[4]~input_o\ $end
$var wire 1 '! \inst|46~0_combout\ $end
$var wire 1 (! \inst|44~0_combout\ $end
$var wire 1 )! \inst|43~0_combout\ $end
$var wire 1 *! \inst|78~1_combout\ $end
$var wire 1 +! \A[3]~input_o\ $end
$var wire 1 ,! \B[3]~input_o\ $end
$var wire 1 -! \inst1|51~0_combout\ $end
$var wire 1 .! \B[0]~input_o\ $end
$var wire 1 /! \A[0]~input_o\ $end
$var wire 1 0! \inst1|46~0_combout\ $end
$var wire 1 1! \B[1]~input_o\ $end
$var wire 1 2! \A[1]~input_o\ $end
$var wire 1 3! \inst1|47~0_combout\ $end
$var wire 1 4! \inst1|43~0_combout\ $end
$var wire 1 5! \CN~input_o\ $end
$var wire 1 6! \inst1|78~0_combout\ $end
$var wire 1 7! \inst1|44~0_combout\ $end
$var wire 1 8! \inst1|52~0_combout\ $end
$var wire 1 9! \B[2]~input_o\ $end
$var wire 1 :! \A[2]~input_o\ $end
$var wire 1 ;! \inst1|48~0_combout\ $end
$var wire 1 <! \inst1|78~1_combout\ $end
$var wire 1 =! \inst1|45~0_combout\ $end
$var wire 1 >! \inst1|78~2_combout\ $end
$var wire 1 ?! \inst|78~2_combout\ $end
$var wire 1 @! \inst|48~0_combout\ $end
$var wire 1 A! \inst|78~3_combout\ $end
$var wire 1 B! \M~input_o\ $end
$var wire 1 C! \inst|77~0_combout\ $end
$var wire 1 D! \inst|77~1_combout\ $end
$var wire 1 E! \inst|82~0_combout\ $end
$var wire 1 F! \inst|79~combout\ $end
$var wire 1 G! \inst|83~0_combout\ $end
$var wire 1 H! \inst|80~combout\ $end
$var wire 1 I! \inst1|78~3_combout\ $end
$var wire 1 J! \inst1|82~0_combout\ $end
$var wire 1 K! \inst1|79~combout\ $end
$var wire 1 L! \inst1|81~combout\ $end
$var wire 1 M! \inst1|77~0_combout\ $end
$var wire 1 N! \inst1|77~1_combout\ $end
$var wire 1 O! \inst1|80~0_combout\ $end
$var wire 1 P! \inst1|83~0_combout\ $end
$var wire 1 Q! \inst2~combout\ $end
$var wire 1 R! \inst|81~combout\ $end
$var wire 1 S! \inst|ALT_INV_81~combout\ $end
$var wire 1 T! \inst|ALT_INV_80~combout\ $end
$var wire 1 U! \inst1|ALT_INV_80~0_combout\ $end
$var wire 1 V! \inst1|ALT_INV_81~combout\ $end
$upscope $end
$upscope $end
$enddefinitions $end
#0
$dumpvars
0)
02
13
0<
0A
1B
xC
1D
1E
1F
1G
1H
1I
1J
0[
0\
0a
1j
0k
1l
1m
0n
0o
0p
0q
0r
1s
0t
0u
1v
0w
0x
1y
0z
0{
0|
1}
1~
0!!
0"!
0#!
0$!
0%!
0&!
0'!
0(!
0)!
1*!
0+!
0,!
0-!
0.!
0/!
00!
01!
02!
03!
04!
05!
16!
07!
08!
19!
0:!
0;!
1<!
0=!
1>!
1?!
0@!
1A!
0B!
0C!
1D!
1E!
1F!
0G!
1H!
1I!
0J!
1K!
1L!
0M!
0N!
0O!
0P!
0Q!
1R!
0S!
0T!
1U!
0V!
1!
1"
0#
0$
0%
0&
0'
0(
0*
0+
0,
0-
0.
1/
00
01
0=
0>
0?
0@
0K
0L
0M
0N
0O
1P
0Q
0R
1S
1T
0U
0V
0W
0X
0Y
0Z
0]
0^
0_
0`
1b
1c
0d
0e
0f
0g
0h
1i
14
15
06
07
08
09
0:
1;
$end
#12500
12
1\
15!
1O!
0U!
0s
0i
0;
#25000
02
1<
0\
1[
1B!
05!
1C!
0E!
0F!
0H!
1J!
0K!
1M!
0O!
1U!
1T!
1N!
0L!
0R!
0D!
1S!
1V!
1P!
1q
0m
1o
1s
1Q!
1g
0c
0l
1p
1e
1i
19
05
1r
1n
0b
1f
1;
17
1h
1d
18
04
1:
16
1k
1a
1)
#37500
12
1\
15!
#50000
02
0<
1@
0\
0[
1`
1{
0B!
05!
0C!
1E!
1F!
1H!
0J!
1K!
0M!
1=!
0T!
1J!
0N!
1L!
0P!
1R!
1D!
0S!
0V!
0Q!
0q
1m
0o
0g
1c
1l
0p
1q
0e
09
15
0r
0n
1b
0f
1g
07
0k
0h
0d
19
08
14
0a
0:
06
0)
#62500
12
1\
15!
1O!
0U!
0s
0i
0;
#75000
02
1<
0\
1[
1B!
05!
1C!
0E!
0F!
0H!
0J!
0K!
1M!
0O!
1U!
1T!
1N!
0L!
0R!
0D!
1S!
1V!
0q
0m
1o
1s
0g
0c
0l
1p
1e
1i
09
05
1r
1n
0b
1f
1;
17
1h
1d
18
04
1:
16
#87500
12
1\
15!
#100000
02
0<
0@
1?
0\
0[
0`
1_
1|
0{
0B!
05!
0C!
1E!
1F!
1H!
1J!
1K!
0M!
1(!
1)!
1-!
14!
17!
0=!
0T!
0J!
06!
0K!
1O!
0H!
0*!
1P!
1G!
1D!
1T!
0U!
1Q!
1L!
0<!
0I!
0P!
1q
1m
0V!
0o
1J!
1g
1c
1l
0q
0e
19
15
0s
1o
1b
0g
07
1k
0i
1e
09
14
0r
1a
0;
17
1q
0h
1)
1g
0:
19
#112500
12
1\
15!
16!
1K!
0O!
1U!
0L!
1<!
1I!
1V!
0J!
1P!
1s
0P!
1i
1r
1;
0q
1h
0g
1:
09
#125000
02
1<
0\
1[
1B!
05!
06!
1C!
0E!
0F!
1H!
1J!
0K!
1M!
1O!
0U!
0T!
0N!
1L!
0Q!
1R!
0G!
0D!
0<!
0I!
0S!
0V!
1q
0m
0o
0s
1g
0c
0l
0k
0p
0e
0i
19
05
0r
0n
0b
0a
0f
0;
07
0h
0d
08
04
0)
0:
06
#137500
12
1\
15!
16!
1<!
1I!
#150000
02
0<
1@
0\
0[
1`
1{
0B!
05!
06!
0C!
1E!
1F!
0H!
0J!
0M!
1=!
1T!
1J!
1N!
0R!
1G!
1D!
0<!
0I!
1S!
0J!
1M!
0>!
1Q!
0q
1m
1o
0?!
0F!
1H!
0N!
0g
1c
1l
1p
1q
0T!
1e
09
15
1n
0Q!
0G!
1R!
0A!
1C!
0E!
1b
1f
1g
17
1k
0q
0S!
1d
19
18
14
0D!
1a
0g
16
0p
1)
09
0o
0f
0m
0j
0k
0e
08
0n
0c
0J
0a
07
0l
0d
05
03
0)
0b
06
04
#162500
12
1\
15!
16!
1K!
0O!
1U!
0L!
1<!
1I!
1V!
1J!
0M!
1>!
1s
1?!
1F!
0H!
1N!
1T!
1i
1r
1P!
0R!
1A!
0C!
1E!
1;
1q
1S!
1h
1G!
1D!
1Q!
1g
1:
1p
19
1o
1f
1m
1j
1e
18
1n
1c
1J
17
1k
1l
1d
15
13
1a
1b
16
1)
14
#175000
02
1<
0\
1[
1B!
05!
06!
1C!
0E!
0F!
1H!
0J!
0K!
1M!
1O!
0U!
0T!
0N!
1L!
0P!
1R!
0G!
0D!
0<!
0I!
0S!
0V!
0>!
0Q!
0q
0m
0o
0s
0?!
0g
0c
0l
0p
0e
0i
09
05
0r
0n
0A!
0b
0f
0;
07
0k
0h
0d
08
04
0a
0:
06
0)
0j
0J
03
#187500
12
1\
15!
16!
1<!
1I!
1>!
1?!
1A!
1j
1J
13
#200000
02
0<
0@
0?
1>
0\
0[
0`
0_
1^
1w
0|
0{
0B!
05!
06!
0C!
1E!
1F!
0H!
1J!
0M!
0(!
0)!
0-!
04!
07!
0=!
1x
1@!
1T!
1C!
0E!
0A!
0J!
0L!
16!
1K!
0O!
1H!
1*!
0T!
1U!
1V!
1L!
1D!
1q
1m
0V!
1o
1g
1c
0q
0j
0m
1e
19
15
1r
1s
0o
0g
0J
0c
17
1l
1h
1i
0e
09
05
03
0r
1b
1;
1:
07
0h
14
0:
#212500
12
1\
15!
1O!
0U!
0s
0i
0;
#225000
02
1<
0\
1[
1B!
05!
1E!
0F!
0H!
1J!
0K!
1M!
0O!
1U!
1T!
1N!
0L!
0R!
1G!
1S!
1V!
1Q!
1P!
1q
1m
1o
1s
1g
1c
1p
1e
1i
19
15
1r
1n
1f
1;
17
1k
1h
1d
18
1a
1:
16
1)
#237500
12
1\
15!
#250000
02
0<
1@
0\
0[
1`
1{
0B!
05!
0E!
1F!
1H!
0J!
1K!
0M!
1=!
0T!
1J!
0N!
1L!
0P!
1R!
0G!
0S!
0V!
0Q!
0q
0m
0o
0g
0c
0p
1q
0e
09
05
0r
0n
0f
1g
07
0k
0h
0d
19
08
0a
0:
06
0)
#262500
12
1\
15!
1O!
0U!
0s
0i
0;
#275000
02
1<
0\
1[
1B!
05!
1E!
0F!
0H!
0J!
0K!
1M!
0O!
1U!
1T!
1N!
0L!
0R!
1G!
1S!
1V!
1Q!
0q
1m
1o
1s
0g
1c
1p
1e
1i
09
15
1r
1n
1f
1;
17
1k
1h
1d
18
1a
1:
16
1)
#287500
12
1\
15!
#300000
02
0<
0@
1?
0\
0[
0`
1_
1|
0{
0B!
05!
0E!
1F!
1H!
1J!
1K!
0M!
1(!
1)!
1-!
14!
17!
0=!
0T!
0J!
06!
0K!
1O!
0H!
0*!
1P!
0Q!
0G!
1T!
0U!
1Q!
1L!
0<!
0I!
0P!
1q
0m
0V!
0o
0Q!
1J!
1g
0c
0k
0q
0e
19
05
0s
1o
0a
0g
07
1k
0i
1e
0)
09
0r
1a
0;
17
1q
0k
0h
1)
1g
0a
0:
19
0)
#312500
12
1\
15!
16!
1K!
0O!
1U!
0L!
1<!
1I!
1V!
0J!
1P!
1s
1Q!
0P!
1i
1r
0Q!
1;
0q
1h
0g
1:
1k
09
1a
0k
1)
0a
0)
#325000
02
1<
0\
1[
1B!
05!
06!
1E!
0F!
1H!
1J!
0K!
1M!
1O!
0U!
0T!
0N!
1L!
1R!
0<!
0I!
0S!
0V!
1q
1m
0o
0s
1g
1c
0p
0e
0i
19
15
0r
0n
0f
0;
07
0h
0d
08
0:
06
#337500
12
1\
15!
16!
1<!
1I!
#350000
02
0<
1@
0\
0[
1`
1{
0B!
05!
06!
0E!
1F!
0H!
0J!
0M!
1=!
1T!
1J!
1N!
0R!
0<!
0I!
1S!
0J!
1M!
0>!
0q
0m
1o
0?!
0F!
1H!
0N!
0g
0c
1p
1q
0T!
1e
09
05
1n
1R!
1E!
1f
1g
17
0q
0S!
1d
19
18
0g
16
0p
09
0o
0f
1m
0e
08
0n
1c
07
0d
15
06
#362500
12
1\
15!
16!
1K!
0O!
1U!
0L!
1<!
1I!
1V!
1J!
0M!
1>!
1s
1?!
1F!
0H!
1N!
1T!
1i
1r
1P!
1G!
0R!
0E!
1;
1q
1S!
1h
0G!
1Q!
1g
1:
1p
19
1o
1f
0m
1e
18
1n
0c
17
1k
1d
05
1a
16
1)
#375000
02
1<
0\
1[
1B!
05!
06!
1E!
0F!
1H!
0J!
0K!
1M!
1O!
0U!
0T!
0N!
1L!
0P!
1R!
0<!
0I!
0S!
0V!
0>!
0Q!
0q
1m
0o
0s
0?!
0g
1c
0p
0e
0i
09
15
0r
0n
0f
0;
07
0k
0h
0d
08
0a
0:
06
0)
#387500
12
1\
15!
16!
1<!
1I!
1>!
1?!
#400000
02
0<
0@
0?
0>
1=
0\
0[
0`
0_
0^
1]
1t
0w
0|
0{
0B!
05!
06!
0E!
1F!
0H!
1J!
0M!
0(!
0)!
0-!
04!
07!
0=!
0x
0@!
1T!
0C!
1E!
1A!
0D!
0J!
0L!
16!
1K!
0O!
1H!
1*!
0T!
1U!
1V!
1L!
1D!
1q
0m
0V!
1o
1g
0c
0q
0l
1j
1m
1e
19
05
1r
1s
0o
0g
0b
1J
1c
17
1l
1h
1i
0e
09
15
04
13
0r
1b
1;
1:
07
0h
14
0:
#412500
12
1\
15!
1O!
0U!
0s
0i
0;
#425000
02
1<
0\
1[
1B!
05!
1C!
0E!
0F!
0H!
1J!
0K!
1M!
0O!
1U!
1T!
1N!
0L!
0R!
0D!
1S!
1V!
1P!
1q
0m
1o
1s
1Q!
1g
0c
0l
1p
1e
1i
19
05
1r
1n
0b
1f
1;
17
1h
1d
18
04
1:
16
1k
1a
1)
#437500
12
1\
15!
#450000
02
0<
1@
0\
0[
1`
1{
0B!
05!
0C!
1E!
1F!
1H!
0J!
1K!
0M!
1=!
0T!
1J!
0N!
1L!
0P!
1R!
1D!
0S!
0V!
0Q!
0q
1m
0o
0g
1c
1l
0p
1q
0e
09
15
0r
0n
1b
0f
1g
07
0k
0h
0d
19
08
14
0a
0:
06
0)
#462500
12
1\
15!
1O!
0U!
0s
0i
0;
#475000
02
1<
0\
1[
1B!
05!
1C!
0E!
0F!
0H!
0J!
0K!
1M!
0O!
1U!
1T!
1N!
0L!
0R!
0D!
1S!
1V!
0q
0m
1o
1s
0g
0c
0l
1p
1e
1i
09
05
1r
1n
0b
1f
1;
17
1h
1d
18
04
1:
16
#487500
12
1\
15!
#500000
02
0<
0@
1?
0\
0[
0`
1_
1|
0{
0B!
05!
0C!
1E!
1F!
1H!
1J!
1K!
0M!
1(!
1)!
1-!
14!
17!
0=!
0T!
0J!
06!
0K!
1O!
0H!
0*!
1P!
1G!
1D!
1T!
0U!
1Q!
1L!
0<!
0I!
0P!
1q
1m
0V!
0o
1J!
1g
1c
1l
0q
0e
19
15
0s
1o
1b
0g
07
1k
0i
1e
09
14
0r
1a
0;
17
1q
0h
1)
1g
0:
19
#512500
12
1\
15!
16!
1K!
0O!
1U!
0L!
1<!
1I!
1V!
0J!
1P!
1s
0P!
1i
1r
1;
0q
1h
0g
1:
09
#525000
02
1<
0\
1[
1B!
05!
06!
1C!
0E!
0F!
1H!
1J!
0K!
1M!
1O!
0U!
0T!
0N!
1L!
0Q!
1R!
0G!
0D!
0<!
0I!
0S!
0V!
1q
0m
0o
0s
1g
0c
0l
0k
0p
0e
0i
19
05
0r
0n
0b
0a
0f
0;
07
0h
0d
08
04
0)
0:
06
#537500
12
1\
15!
16!
1<!
1I!
#550000
02
0<
1@
0\
0[
1`
1{
0B!
05!
06!
0C!
1E!
1F!
0H!
0J!
0M!
1=!
1T!
1J!
1N!
0R!
1G!
1D!
0<!
0I!
1S!
0J!
1M!
0>!
1Q!
0q
1m
1o
0?!
0F!
1H!
0N!
0g
1c
1l
1p
1q
0T!
1e
09
15
1n
0Q!
0G!
1R!
0A!
1C!
0E!
1b
1f
1g
17
1k
0q
0S!
1d
19
18
14
0D!
1a
0g
16
0p
1)
09
0o
0f
0m
0j
0k
0e
08
0n
0c
0J
0a
07
0l
0d
05
03
0)
0b
06
04
#562500
12
1\
15!
16!
1K!
0O!
1U!
0L!
1<!
1I!
1V!
1J!
0M!
1>!
1s
1?!
1F!
0H!
1N!
1T!
1i
1r
1P!
0R!
1A!
0C!
1E!
1;
1q
1S!
1h
1G!
1D!
1Q!
1g
1:
1p
19
1o
1f
1m
1j
1e
18
1n
1c
1J
17
1k
1l
1d
15
13
1a
1b
16
1)
14
#575000
02
1<
0\
1[
1B!
05!
06!
1C!
0E!
0F!
1H!
0J!
0K!
1M!
1O!
0U!
0T!
0N!
1L!
0P!
1R!
0G!
0D!
0<!
0I!
0S!
0V!
0>!
0Q!
0q
0m
0o
0s
0?!
0g
0c
0l
0p
0e
0i
09
05
0r
0n
0A!
0b
0f
0;
07
0k
0h
0d
08
04
0a
0:
06
0)
0j
0J
03
#587500
12
1\
15!
16!
1<!
1I!
1>!
1?!
1A!
1j
1J
13
#600000
02
0<
0@
0?
1>
0\
0[
0`
0_
1^
1w
0|
0{
0B!
05!
06!
0C!
1E!
1F!
0H!
1J!
0M!
0(!
0)!
0-!
04!
07!
0=!
1x
1@!
1T!
1C!
0E!
0A!
0J!
0L!
16!
1K!
0O!
1H!
1*!
0T!
1U!
1V!
1L!
1D!
1q
1m
0V!
1o
1g
1c
0q
0j
0m
1e
19
15
1r
1s
0o
0g
0J
0c
17
1l
1h
1i
0e
09
05
03
0r
1b
1;
1:
07
0h
14
0:
#612500
12
1\
15!
1O!
0U!
0s
0i
0;
#625000
02
1<
0\
1[
1B!
05!
1E!
0F!
0H!
1J!
0K!
1M!
0O!
1U!
1T!
1N!
0L!
0R!
1G!
1S!
1V!
1Q!
1P!
1q
1m
1o
1s
1g
1c
1p
1e
1i
19
15
1r
1n
1f
1;
17
1k
1h
1d
18
1a
1:
16
1)
#637500
12
1\
15!
#650000
02
0<
1@
0\
0[
1`
1{
0B!
05!
0E!
1F!
1H!
0J!
1K!
0M!
1=!
0T!
1J!
0N!
1L!
0P!
1R!
0G!
0S!
0V!
0Q!
0q
0m
0o
0g
0c
0p
1q
0e
09
05
0r
0n
0f
1g
07
0k
0h
0d
19
08
0a
0:
06
0)
#662500
12
1\
15!
1O!
0U!
0s
0i
0;
#675000
02
1<
0\
1[
1B!
05!
1E!
0F!
0H!
0J!
0K!
1M!
0O!
1U!
1T!
1N!
0L!
0R!
1G!
1S!
1V!
1Q!
0q
1m
1o
1s
0g
1c
1p
1e
1i
09
15
1r
1n
1f
1;
17
1k
1h
1d
18
1a
1:
16
1)
#687500
12
1\
15!
#700000
02
0<
0@
1?
0\
0[
0`
1_
1|
0{
0B!
05!
0E!
1F!
1H!
1J!
1K!
0M!
1(!
1)!
1-!
14!
17!
0=!
0T!
0J!
06!
0K!
1O!
0H!
0*!
1P!
0Q!
0G!
1T!
0U!
1Q!
1L!
0<!
0I!
0P!
1q
0m
0V!
0o
0Q!
1J!
1g
0c
0k
0q
0e
19
05
0s
1o
0a
0g
07
1k
0i
1e
0)
09
0r
1a
0;
17
1q
0k
0h
1)
1g
0a
0:
19
0)
#712500
12
1\
15!
16!
1K!
0O!
1U!
0L!
1<!
1I!
1V!
0J!
1P!
1s
1Q!
0P!
1i
1r
0Q!
1;
0q
1h
0g
1:
1k
09
1a
0k
1)
0a
0)
#725000
02
1<
0\
1[
1B!
05!
06!
1E!
0F!
1H!
1J!
0K!
1M!
1O!
0U!
0T!
0N!
1L!
1R!
0<!
0I!
0S!
0V!
1q
1m
0o
0s
1g
1c
0p
0e
0i
19
15
0r
0n
0f
0;
07
0h
0d
08
0:
06
#737500
12
1\
15!
16!
1<!
1I!
#750000
02
0<
1@
0\
0[
1`
1{
0B!
05!
06!
0E!
1F!
0H!
0J!
0M!
1=!
1T!
1J!
1N!
0R!
0<!
0I!
1S!
0J!
1M!
0>!
0q
0m
1o
0?!
0F!
1H!
0N!
0g
0c
1p
1q
0T!
1e
09
05
1n
1R!
1E!
1f
1g
17
0q
0S!
1d
19
18
0g
16
0p
09
0o
0f
1m
0e
08
0n
1c
07
0d
15
06
#762500
12
1\
15!
16!
1K!
0O!
1U!
0L!
1<!
1I!
1V!
1J!
0M!
1>!
1s
1?!
1F!
0H!
1N!
1T!
1i
1r
1P!
1G!
0R!
0E!
1;
1q
1S!
1h
0G!
1Q!
1g
1:
1p
19
1o
1f
0m
1e
18
1n
0c
17
1k
1d
05
1a
16
1)
#775000
02
1<
0\
1[
1B!
05!
06!
1E!
0F!
1H!
0J!
0K!
1M!
1O!
0U!
0T!
0N!
1L!
0P!
1R!
0<!
0I!
0S!
0V!
0>!
0Q!
0q
1m
0o
0s
0?!
0g
1c
0p
0e
0i
09
15
0r
0n
0f
0;
07
0k
0h
0d
08
0a
0:
06
0)
#787500
12
1\
15!
16!
1<!
1I!
1>!
1?!
#800000
02
0<
0@
0?
0>
0=
0\
0[
0`
0_
0^
0]
0t
0w
0|
0{
0B!
05!
06!
0E!
1F!
0H!
1J!
0M!
0(!
0)!
0-!
04!
07!
0=!
0x
0@!
1T!
0C!
1E!
1A!
0D!
0J!
0L!
16!
1K!
0O!
1H!
1*!
0T!
1U!
1V!
1L!
1D!
1q
0m
0V!
1o
1g
0c
0q
0l
1j
1m
1e
19
05
1r
1s
0o
0g
0b
1J
1c
17
1l
1h
1i
0e
09
15
04
13
0r
1b
1;
1:
07
0h
14
0:
#812500
12
1\
15!
1O!
0U!
0s
0i
0;
#825000
02
1<
0\
1[
1B!
05!
1C!
0E!
0F!
0H!
1J!
0K!
1M!
0O!
1U!
1T!
1N!
0L!
0R!
0D!
1S!
1V!
1P!
1q
0m
1o
1s
1Q!
1g
0c
0l
1p
1e
1i
19
05
1r
1n
0b
1f
1;
17
1h
1d
18
04
1:
16
1k
1a
1)
#837500
12
1\
15!
#850000
02
0<
0\
0[
0B!
05!
0C!
1E!
1F!
1H!
0J!
1K!
0M!
0T!
0N!
1L!
0P!
1R!
1D!
0S!
0V!
0Q!
0q
1m
0o
0g
1c
1l
0p
0e
09
15
0r
0n
1b
0f
07
0k
0h
0d
08
14
0a
0:
06
0)
#862500
12
1\
15!
1O!
0U!
0s
0i
0;
#875000
02
1<
0\
1[
1B!
05!
1C!
0E!
0F!
0H!
1J!
0K!
1M!
0O!
1U!
1T!
1N!
0L!
0R!
0D!
1S!
1V!
1P!
1q
0m
1o
1s
1Q!
1g
0c
0l
1p
1e
1i
19
05
1r
1n
0b
1f
1;
17
1h
1d
18
04
1:
16
1k
1a
1)
#887500
12
1\
15!
#900000
02
0<
0\
0[
0B!
05!
0C!
1E!
1F!
1H!
0J!
1K!
0M!
0T!
0N!
1L!
0P!
1R!
1D!
0S!
0V!
0Q!
0q
1m
0o
0g
1c
1l
0p
0e
09
15
0r
0n
1b
0f
07
0k
0h
0d
08
14
0a
0:
06
0)
#912500
12
1\
15!
1O!
0U!
0s
0i
0;
#925000
02
1<
0\
1[
1B!
05!
1C!
0E!
0F!
0H!
1J!
0K!
1M!
0O!
1U!
1T!
1N!
0L!
0R!
0D!
1S!
1V!
1P!
1q
0m
1o
1s
1Q!
1g
0c
0l
1p
1e
1i
19
05
1r
1n
0b
1f
1;
17
1h
1d
18
04
1:
16
1k
1a
1)
#937500
12
1\
15!
#950000
02
0<
0\
0[
0B!
05!
0C!
1E!
1F!
1H!
0J!
1K!
0M!
0T!
0N!
1L!
0P!
1R!
1D!
0S!
0V!
0Q!
0q
1m
0o
0g
1c
1l
0p
0e
09
15
0r
0n
1b
0f
07
0k
0h
0d
08
14
0a
0:
06
0)
#962500
12
1\
15!
1O!
0U!
0s
0i
0;
#975000
02
1<
0\
1[
1B!
05!
1C!
0E!
0F!
0H!
1J!
0K!
1M!
0O!
1U!
1T!
1N!
0L!
0R!
0D!
1S!
1V!
1P!
1q
0m
1o
1s
1Q!
1g
0c
0l
1p
1e
1i
19
05
1r
1n
0b
1f
1;
17
1h
1d
18
04
1:
16
1k
1a
1)
#987500
12
1\
15!
