CH6/uControl/simulation/qsim/uControl1119.msim.vcd
$comment
	File created using the following command:
		vcd file uControl1119.msim.vcd -direction
$end
$date
	Mon Dec 05 22:14:59 2022
$end
$version
	ModelSim Version 10.5b
$end
$timescale
	1ps
$end

$scope module uControl1119_vlg_vec_tst $end
$var reg 1 ! CLK1 $end
$var reg 1 " FC $end
$var reg 1 # FZ $end
$var reg 6 $ I [7:2] $end
$var reg 1 % RST1 $end
$var reg 1 & RST2 $end
$var reg 1 ' S0 $end
$var reg 1 ( SWA $end
$var reg 1 ) SWB $end
$var wire 1 * ALU_B $end
$var wire 1 + LDAR $end
$var wire 1 , LDDR1 $end
$var wire 1 - LDDR2 $end
$var wire 1 . LDIR $end
$var wire 1 / LDPC $end
$var wire 1 0 LDR1 $end
$var wire 1 1 LED_B $end
$var wire 1 2 LOAD $end
$var wire 1 3 M [24] $end
$var wire 1 4 M [23] $end
$var wire 1 5 M [22] $end
$var wire 1 6 M [21] $end
$var wire 1 7 M [20] $end
$var wire 1 8 M [19] $end
$var wire 1 9 M [18] $end
$var wire 1 : M [17] $end
$var wire 1 ; M [16] $end
$var wire 1 < M [15] $end
$var wire 1 = M [14] $end
$var wire 1 > M [13] $end
$var wire 1 ? M [12] $end
$var wire 1 @ M [11] $end
$var wire 1 A M [10] $end
$var wire 1 B M [9] $end
$var wire 1 C M [8] $end
$var wire 1 D M [7] $end
$var wire 1 E M [6] $end
$var wire 1 F M [5] $end
$var wire 1 G M [4] $end
$var wire 1 H M [3] $end
$var wire 1 I M [2] $end
$var wire 1 J M [1] $end
$var wire 1 K P [4] $end
$var wire 1 L P [3] $end
$var wire 1 M P [2] $end
$var wire 1 N P [1] $end
$var wire 1 O PC_B $end
$var wire 1 P R0_B $end
$var wire 1 Q R1_B $end
$var wire 1 R R2_B $end
$var wire 1 S RAM_B $end
$var wire 1 T SW_B $end
$var wire 1 U uaddr [6] $end
$var wire 1 V uaddr [5] $end
$var wire 1 W uaddr [4] $end
$var wire 1 X uaddr [3] $end
$var wire 1 Y uaddr [2] $end
$var wire 1 Z uaddr [1] $end

$scope module i1 $end
$var wire 1 [ gnd $end
$var wire 1 \ vcc $end
$var wire 1 ] unknown $end
$var tri1 1 ^ devclrn $end
$var tri1 1 _ devpor $end
$var tri1 1 ` devoe $end
$var wire 1 a RAM_B~output_o $end
$var wire 1 b M[24]~output_o $end
$var wire 1 c M[23]~output_o $end
$var wire 1 d M[22]~output_o $end
$var wire 1 e M[21]~output_o $end
$var wire 1 f M[20]~output_o $end
$var wire 1 g M[19]~output_o $end
$var wire 1 h M[18]~output_o $end
$var wire 1 i M[17]~output_o $end
$var wire 1 j M[16]~output_o $end
$var wire 1 k M[15]~output_o $end
$var wire 1 l M[14]~output_o $end
$var wire 1 m M[13]~output_o $end
$var wire 1 n M[12]~output_o $end
$var wire 1 o M[11]~output_o $end
$var wire 1 p M[10]~output_o $end
$var wire 1 q M[9]~output_o $end
$var wire 1 r M[8]~output_o $end
$var wire 1 s M[7]~output_o $end
$var wire 1 t M[6]~output_o $end
$var wire 1 u M[5]~output_o $end
$var wire 1 v M[4]~output_o $end
$var wire 1 w M[3]~output_o $end
$var wire 1 x M[2]~output_o $end
$var wire 1 y M[1]~output_o $end
$var wire 1 z uaddr[6]~output_o $end
$var wire 1 { uaddr[5]~output_o $end
$var wire 1 | uaddr[4]~output_o $end
$var wire 1 } uaddr[3]~output_o $end
$var wire 1 ~ uaddr[2]~output_o $end
$var wire 1 !! uaddr[1]~output_o $end
$var wire 1 "! P[4]~output_o $end
$var wire 1 #! P[3]~output_o $end
$var wire 1 $! P[2]~output_o $end
$var wire 1 %! P[1]~output_o $end
$var wire 1 &! SW_B~output_o $end
$var wire 1 '! LDR1~output_o $end
$var wire 1 (! LDDR1~output_o $end
$var wire 1 )! LDDR2~output_o $end
$var wire 1 *! LDIR~output_o $end
$var wire 1 +! LOAD~output_o $end
$var wire 1 ,! LDAR~output_o $end
$var wire 1 -! LDPC~output_o $end
$var wire 1 .! LED_B~output_o $end
$var wire 1 /! R0_B~output_o $end
$var wire 1 0! R1_B~output_o $end
$var wire 1 1! R2_B~output_o $end
$var wire 1 2! ALU_B~output_o $end
$var wire 1 3! PC_B~output_o $end
$var wire 1 4! inst|inst1~feeder_combout $end
$var wire 1 5! RST1~input_o $end
$var wire 1 6! RST1~inputclkctrl_outclk $end
$var wire 1 7! inst|inst1~q $end
$var wire 1 8! inst|inst2~q $end
$var wire 1 9! inst|inst3~q $end
$var wire 1 :! inst|inst4~q $end
$var wire 1 ;! S0~input_o $end
$var wire 1 <! CLK1~input_o $end
$var wire 1 =! inst|inst13~combout $end
$var wire 1 >! inst|inst13~clkctrl_outclk $end
$var wire 1 ?! inst|inst9|5~0_combout $end
$var wire 1 @! inst|inst9|5~1_combout $end
$var wire 1 A! inst|inst~q $end
$var wire 1 B! inst|inst~clkctrl_outclk $end
$var wire 1 C! inst|inst1~clkctrl_outclk $end
$var wire 1 D! SWB~input_o $end
$var wire 1 E! RST2~input_o $end
$var wire 1 F! I[7]~input_o $end
$var wire 1 G! FZ~input_o $end
$var wire 1 H! FC~input_o $end
$var wire 1 I! inst5|inst~1_combout $end
$var wire 1 J! inst7|inst~0_combout $end
$var wire 1 K! inst6|inst44~1_combout $end
$var wire 1 L! inst6|inst45~feeder_combout $end
$var wire 1 M! inst6|inst45~q $end
$var wire 1 N! inst6|inst44~3_combout $end
$var wire 1 O! inst6|inst44~0_combout $end
$var wire 1 P! inst6|inst44~_emulated_q $end
$var wire 1 Q! inst6|inst44~2_combout $end
$var wire 1 R! inst7|inst24~0_combout $end
$var wire 1 S! inst7|inst24~combout $end
$var wire 1 T! inst6|inst43~1_combout $end
$var wire 1 U! inst6|inst43~3_combout $end
$var wire 1 V! inst6|inst43~0_combout $end
$var wire 1 W! inst6|inst43~_emulated_q $end
$var wire 1 X! inst6|inst43~2_combout $end
$var wire 1 Y! I[6]~input_o $end
$var wire 1 Z! inst7|inst25~combout $end
$var wire 1 [! inst6|inst42~1_combout $end
$var wire 1 \! inst6|inst42~3_combout $end
$var wire 1 ]! inst6|inst42~0_combout $end
$var wire 1 ^! inst6|inst42~_emulated_q $end
$var wire 1 _! inst6|inst42~2_combout $end
$var wire 1 `! I[5]~input_o $end
$var wire 1 a! I[3]~input_o $end
$var wire 1 b! inst7|inst9~0_combout $end
$var wire 1 c! inst7|inst9~1_combout $end
$var wire 1 d! inst7|inst9~combout $end
$var wire 1 e! inst6|inst41~1_combout $end
$var wire 1 f! inst6|inst41~3_combout $end
$var wire 1 g! inst6|inst41~0_combout $end
$var wire 1 h! inst6|inst41~_emulated_q $end
$var wire 1 i! inst6|inst41~2_combout $end
$var wire 1 j! inst5|inst~0_combout $end
$var wire 1 k! SWA~input_o $end
$var wire 1 l! I[4]~input_o $end
$var wire 1 m! I[2]~input_o $end
$var wire 1 n! inst7|inst27~0_combout $end
$var wire 1 o! inst7|inst10~0_combout $end
$var wire 1 p! inst7|inst10~combout $end
$var wire 1 q! inst6|inst40~1_combout $end
$var wire 1 r! inst6|inst40~3_combout $end
$var wire 1 s! inst6|inst40~0_combout $end
$var wire 1 t! inst6|inst40~_emulated_q $end
$var wire 1 u! inst6|inst40~2_combout $end
$var wire 1 v! inst2|inst7~combout $end
$var wire 1 w! inst5|inst~2_combout $end
$var wire 1 x! inst5|inst~3_combout $end
$var wire 1 y! inst2|inst8~combout $end
$var wire 1 z! inst3|inst~0_combout $end
$var wire 1 {! inst3|inst~1_combout $end
$var wire 1 |! inst3|inst~2_combout $end
$var wire 1 }! inst3|inst~3_combout $end
$var wire 1 ~! inst3|inst~4_combout $end
$var wire 1 !" inst3|inst~5_combout $end
$var wire 1 "" inst5|inst~4_combout $end
$var wire 1 #" inst2|inst6~combout $end
$var wire 1 $" inst4|inst~0_combout $end
$var wire 1 %" inst4|inst~1_combout $end
$var wire 1 &" inst4|inst~2_combout $end
$var wire 1 '" inst4|inst~3_combout $end
$var wire 1 (" inst4|inst~4_combout $end
$var wire 1 )" inst8|inst|srom|rom_block|auto_generated|q_a [23] $end
$var wire 1 *" inst8|inst|srom|rom_block|auto_generated|q_a [22] $end
$var wire 1 +" inst8|inst|srom|rom_block|auto_generated|q_a [21] $end
$var wire 1 ," inst8|inst|srom|rom_block|auto_generated|q_a [20] $end
$var wire 1 -" inst8|inst|srom|rom_block|auto_generated|q_a [19] $end
$var wire 1 ." inst8|inst|srom|rom_block|auto_generated|q_a [18] $end
$var wire 1 /" inst8|inst|srom|rom_block|auto_generated|q_a [17] $end
$var wire 1 0" inst8|inst|srom|rom_block|auto_generated|q_a [16] $end
$var wire 1 1" inst8|inst|srom|rom_block|auto_generated|q_a [15] $end
$var wire 1 2" inst8|inst|srom|rom_block|auto_generated|q_a [14] $end
$var wire 1 3" inst8|inst|srom|rom_block|auto_generated|q_a [13] $end
$var wire 1 4" inst8|inst|srom|rom_block|auto_generated|q_a [12] $end
$var wire 1 5" inst8|inst|srom|rom_block|auto_generated|q_a [11] $end
$var wire 1 6" inst8|inst|srom|rom_block|auto_generated|q_a [10] $end
$var wire 1 7" inst8|inst|srom|rom_block|auto_generated|q_a [9] $end
$var wire 1 8" inst8|inst|srom|rom_block|auto_generated|q_a [8] $end
$var wire 1 9" inst8|inst|srom|rom_block|auto_generated|q_a [7] $end
$var wire 1 :" inst8|inst|srom|rom_block|auto_generated|q_a [6] $end
$var wire 1 ;" inst8|inst|srom|rom_block|auto_generated|q_a [5] $end
$var wire 1 <" inst8|inst|srom|rom_block|auto_generated|q_a [4] $end
$var wire 1 =" inst8|inst|srom|rom_block|auto_generated|q_a [3] $end
$var wire 1 >" inst8|inst|srom|rom_block|auto_generated|q_a [2] $end
$var wire 1 ?" inst8|inst|srom|rom_block|auto_generated|q_a [1] $end
$var wire 1 @" inst8|inst|srom|rom_block|auto_generated|q_a [0] $end
$var wire 1 A" inst8|inst|srom|rom_block|auto_generated|ram_block1a0_PORTADATAOUT_bus [35] $end
$var wire 1 B" inst8|inst|srom|rom_block|auto_generated|ram_block1a0_PORTADATAOUT_bus [34] $end
$var wire 1 C" inst8|inst|srom|rom_block|auto_generated|ram_block1a0_PORTADATAOUT_bus [33] $end
$var wire 1 D" inst8|inst|srom|rom_block|auto_generated|ram_block1a0_PORTADATAOUT_bus [32] $end
$var wire 1 E" inst8|inst|srom|rom_block|auto_generated|ram_block1a0_PORTADATAOUT_bus [31] $end
$var wire 1 F" inst8|inst|srom|rom_block|auto_generated|ram_block1a0_PORTADATAOUT_bus [30] $end
$var wire 1 G" inst8|inst|srom|rom_block|auto_generated|ram_block1a0_PORTADATAOUT_bus [29] $end
$var wire 1 H" inst8|inst|srom|rom_block|auto_generated|ram_block1a0_PORTADATAOUT_bus [28] $end
$var wire 1 I" inst8|inst|srom|rom_block|auto_generated|ram_block1a0_PORTADATAOUT_bus [27] $end
$var wire 1 J" inst8|inst|srom|rom_block|auto_generated|ram_block1a0_PORTADATAOUT_bus [26] $end
$var wire 1 K" inst8|inst|srom|rom_block|auto_generated|ram_block1a0_PORTADATAOUT_bus [25] $end
$var wire 1 L" inst8|inst|srom|rom_block|auto_generated|ram_block1a0_PORTADATAOUT_bus [24] $end
$var wire 1 M" inst8|inst|srom|rom_block|auto_generated|ram_block1a0_PORTADATAOUT_bus [23] $end
$var wire 1 N" inst8|inst|srom|rom_block|auto_generated|ram_block1a0_PORTADATAOUT_bus [22] $end
$var wire 1 O" inst8|inst|srom|rom_block|auto_generated|ram_block1a0_PORTADATAOUT_bus [21] $end
$var wire 1 P" inst8|inst|srom|rom_block|auto_generated|ram_block1a0_PORTADATAOUT_bus [20] $end
$var wire 1 Q" inst8|inst|srom|rom_block|auto_generated|ram_block1a0_PORTADATAOUT_bus [19] $end
$var wire 1 R" inst8|inst|srom|rom_block|auto_generated|ram_block1a0_PORTADATAOUT_bus [18] $end
$var wire 1 S" inst8|inst|srom|rom_block|auto_generated|ram_block1a0_PORTADATAOUT_bus [17] $end
$var wire 1 T" inst8|inst|srom|rom_block|auto_generated|ram_block1a0_PORTADATAOUT_bus [16] $end
$var wire 1 U" inst8|inst|srom|rom_block|auto_generated|ram_block1a0_PORTADATAOUT_bus [15] $end
$var wire 1 V" inst8|inst|srom|rom_block|auto_generated|ram_block1a0_PORTADATAOUT_bus [14] $end
$var wire 1 W" inst8|inst|srom|rom_block|auto_generated|ram_block1a0_PORTADATAOUT_bus [13] $end
$var wire 1 X" inst8|inst|srom|rom_block|auto_generated|ram_block1a0_PORTADATAOUT_bus [12] $end
$var wire 1 Y" inst8|inst|srom|rom_block|auto_generated|ram_block1a0_PORTADATAOUT_bus [11] $end
$var wire 1 Z" inst8|inst|srom|rom_block|auto_generated|ram_block1a0_PORTADATAOUT_bus [10] $end
$var wire 1 [" inst8|inst|srom|rom_block|auto_generated|ram_block1a0_PORTADATAOUT_bus [9] $end
$var wire 1 \" inst8|inst|srom|rom_block|auto_generated|ram_block1a0_PORTADATAOUT_bus [8] $end
$var wire 1 ]" inst8|inst|srom|rom_block|auto_generated|ram_block1a0_PORTADATAOUT_bus [7] $end
$var wire 1 ^" inst8|inst|srom|rom_block|auto_generated|ram_block1a0_PORTADATAOUT_bus [6] $end
$var wire 1 _" inst8|inst|srom|rom_block|auto_generated|ram_block1a0_PORTADATAOUT_bus [5] $end
$var wire 1 `" inst8|inst|srom|rom_block|auto_generated|ram_block1a0_PORTADATAOUT_bus [4] $end
$var wire 1 a" inst8|inst|srom|rom_block|auto_generated|ram_block1a0_PORTADATAOUT_bus [3] $end
$var wire 1 b" inst8|inst|srom|rom_block|auto_generated|ram_block1a0_PORTADATAOUT_bus [2] $end
$var wire 1 c" inst8|inst|srom|rom_block|auto_generated|ram_block1a0_PORTADATAOUT_bus [1] $end
$var wire 1 d" inst8|inst|srom|rom_block|auto_generated|ram_block1a0_PORTADATAOUT_bus [0] $end
$upscope $end
$upscope $end
$enddefinitions $end
#0
$dumpvars
0!
0"
0#
b0 $
1%
0&
1'
0(
0)
1*
0+
0,
0-
0.
0/
00
11
02
0J
0I
0H
0G
0F
0E
0D
0C
0B
0A
0@
0?
0>
0=
0<
0;
0:
09
08
07
06
05
04
03
0N
0M
0L
0K
1O
1P
1Q
1R
1S
0T
xZ
xY
xX
xW
xV
0U
0[
1\
x]
1^
1_
1`
1a
0b
0c
0d
0e
0f
0g
0h
0i
0j
0k
0l
0m
0n
0o
0p
0q
0r
0s
0t
0u
0v
0w
0x
0y
0z
x{
x|
x}
x~
x!!
0"!
0#!
0$!
0%!
0&!
0'!
0(!
0)!
0*!
0+!
0,!
0-!
1.!
1/!
10!
11!
12!
13!
04!
15!
16!
07!
08!
09!
0:!
1;!
0<!
0=!
0>!
1?!
1@!
0A!
0B!
0C!
0D!
0E!
0F!
0G!
0H!
0I!
0J!
xK!
0L!
0M!
xN!
0O!
0P!
xQ!
0R!
0S!
xT!
xU!
0V!
0W!
xX!
0Y!
0Z!
x[!
x\!
0]!
0^!
x_!
0`!
0a!
0b!
0c!
0d!
xe!
xf!
0g!
0h!
xi!
0j!
0k!
0l!
0m!
0n!
0o!
0p!
xq!
xr!
0s!
0t!
xu!
0v!
0w!
0x!
0y!
0z!
0{!
0|!
0}!
0~!
0!"
0""
0#"
0$"
0%"
0&"
0'"
0("
0@"
0?"
0>"
0="
0<"
0;"
0:"
09"
08"
07"
06"
05"
04"
03"
02"
01"
00"
0/"
0."
0-"
0,"
0+"
0*"
0)"
0d"
0c"
0b"
0a"
0`"
0_"
0^"
0]"
0\"
0["
0Z"
0Y"
0X"
0W"
0V"
0U"
0T"
0S"
0R"
0Q"
0P"
0O"
0N"
0M"
0L"
0K"
0J"
0I"
0H"
0G"
0F"
0E"
0D"
0C"
0B"
0A"
$end
#5000
1!
1<!
1=!
1>!
1A!
1B!
0@!
14!
#5001
xd"
xc"
xb"
xa"
x`"
x_"
x^"
x]"
x\"
x["
xZ"
xY"
xX"
xW"
xV"
xU"
xT"
xS"
xR"
xQ"
xP"
xO"
xN"
xM"
xL"
xK"
xJ"
xI"
xH"
xG"
xF"
xE"
xD"
xC"
xB"
xA"
x@"
x?"
x>"
x="
x<"
x;"
x:"
x9"
x8"
x7"
x6"
x5"
x4"
x3"
x2"
x1"
x0"
x/"
x."
x-"
x,"
x+"
x*"
x)"
xb
xc
xd
xe
xf
xg
xh
xi
xj
xk
xl
xm
xn
xo
xp
xq
xr
xs
xt
xu
xv
xw
xx
xy
x("
x'"
x&"
x%"
x$"
x#"
xv!
xJ
xI
xH
xG
xF
xE
xD
xC
xB
xA
x@
x?
x>
x=
x<
x;
x:
x9
x8
x7
x6
x5
x4
x3
xL!
x""
xx!
xw!
xj!
xI!
x!"
x~!
x}!
x|!
x{!
xz!
xy!
x&!
x'!
x(!
x)!
x*!
x+!
x,!
x#!
x"!
x$!
x%!
x-!
xa
x.!
x/!
x0!
x1!
x2!
x3!
xO
x*
xR
xQ
xP
x1
xS
x/
xN
xM
xK
xL
x+
x2
x.
x-
x,
x0
xT
#10000
1&
0!
1E!
0<!
1s!
0q!
1g!
0e!
1]!
0[!
1V!
0T!
1O!
0K!
0=!
0>!
0u!
0i!
0_!
0X!
0Q!
0{
0|
0}
0~
0!!
0Z
0Y
0X
0W
0V
#15000
1!
1<!
1=!
1>!
0A!
17!
0B!
1C!
1@!
0?!
04!
0@!
#20000
0&
0!
0E!
0<!
0s!
0g!
0]!
0V!
0O!
0=!
0>!
#25000
1!
1<!
1=!
1>!
18!
07!
0C!
#30000
0%
0!
05!
0<!
06!
0=!
0>!
08!
1?!
1@!
#35000
1!
1<!
1=!
1>!
#40000
0!
0<!
0=!
0>!
#45000
1!
1<!
1=!
1>!
#50000
1%
0!
15!
0<!
16!
0=!
0>!
#55000
1!
1<!
1=!
1>!
1A!
1B!
0@!
14!
#55001
0d"
0c"
0b"
0a"
1`"
0_"
0^"
0]"
1\"
0["
0Z"
0Y"
0X"
0W"
0V"
1U"
1T"
0S"
0R"
0Q"
0P"
0O"
0N"
0M"
0L"
0K"
0J"
0I"
0H"
0G"
0F"
0E"
0D"
0C"
0B"
0A"
0@"
0?"
0>"
0="
1<"
0;"
0:"
09"
18"
07"
06"
05"
04"
03"
02"
11"
10"
0/"
0."
0-"
0,"
0+"
0*"
0)"
0b
0c
0d
0e
0f
0g
0h
1i
1j
0k
0l
0m
0n
0o
0p
1q
0r
0s
0t
1u
0v
0w
0x
0y
0f!
0\!
0("
0'"
0&"
0%"
0$"
0#"
0v!
0J
0I
0H
0G
1F
0E
0D
0C
1B
0A
0@
0?
0>
0=
0<
1;
1:
09
08
07
06
05
04
03
0r!
0U!
1N!
0L!
0""
0x!
0w!
1j!
0I!
0!"
0~!
0}!
0|!
0{!
0z!
1y!
1&!
0'!
0(!
0)!
0*!
0+!
0,!
0#!
1"!
0$!
0%!
0-!
1a
1.!
1/!
10!
11!
12!
13!
1O
1*
1R
1Q
1P
11
1S
0/
0N
0M
1K
0L
0+
02
0.
0-
0,
00
1T
#60000
0!
0<!
0=!
0>!
#65000
1!
1<!
1=!
1>!
0A!
17!
0B!
1C!
1@!
0?!
04!
0@!
1P!
1Q!
1{
1V
#70000
0!
0<!
0=!
0>!
#75000
1!
1<!
1=!
1>!
18!
07!
0C!
#80000
0!
0<!
0=!
0>!
#85000
1!
1<!
1=!
1>!
19!
08!
1?!
1@!
#90000
0!
0<!
0=!
0>!
#95000
1!
1<!
1=!
1>!
1A!
1:!
09!
1B!
0@!
14!
#95001
1c"
1]"
1Z"
1Y"
1W"
1V"
1?"
19"
16"
15"
13"
12"
1k
1l
1n
1o
1r
1x
1f!
1("
1I
1C
1@
1?
1=
1<
1""
0j!
1!"
1,!
0"!
1-!
03!
0O
1/
0K
1+
#100000
0!
0<!
0=!
0>!
#105000
1!
1<!
1=!
1>!
0A!
0:!
17!
0B!
1C!
1@!
0?!
04!
0@!
1h!
1i!
1~
1Y
#110000
0!
0<!
0=!
0>!
#115000
1!
1<!
1=!
1>!
18!
07!
0C!
#120000
0!
0<!
0=!
0>!
#125000
1!
1<!
1=!
1>!
19!
08!
1?!
1@!
#130000
0!
0<!
0=!
0>!
#135000
1!
1<!
1=!
1>!
1A!
1:!
09!
1B!
0@!
14!
#135001
1d"
1b"
0]"
0\"
0Z"
0Y"
0V"
0T"
1@"
1>"
09"
08"
06"
05"
02"
00"
0i
0k
0n
0o
0q
0r
1w
1y
1\!
0("
1v!
1J
1H
0C
0B
0@
0?
0<
0:
1r!
0""
0!"
1{!
1(!
0,!
0-!
0a
13!
1O
0S
0/
0+
1,
#140000
0!
0<!
0=!
0>!
#145000
1!
1<!
1=!
1>!
0A!
0:!
17!
0B!
1C!
1@!
0?!
04!
0@!
1t!
1^!
1u!
1_!
1}
1!!
1Z
1X
#150000
0!
0<!
0=!
0>!
#155000
1!
1<!
1=!
1>!
18!
07!
0C!
#160000
0!
0<!
0=!
0>!
#165000
1!
1<!
1=!
1>!
19!
08!
1?!
1@!
#170000
0!
0<!
0=!
0>!
#175000
1!
1<!
1=!
1>!
1A!
1:!
09!
1B!
0@!
14!
#175001
0d"
0c"
0b"
1["
1Y"
0W"
0U"
1T"
1R"
0@"
0?"
0>"
17"
15"
03"
01"
10"
1."
1g
1i
0j
0l
1n
1p
0w
0x
0y
0f!
0\!
1'"
1#"
0v!
0J
0I
0H
1A
1?
0=
0;
1:
18
0r!
0{!
0(!
1a
0.!
02!
0*
01
1S
0,
#180000
0!
0<!
0=!
0>!
#185000
1!
1<!
1=!
1>!
0A!
0:!
17!
0B!
1C!
1@!
0?!
04!
0@!
0t!
0h!
0^!
0u!
0i!
0_!
0}
0~
0!!
0Z
0Y
0X
#190000
0!
0<!
0=!
0>!
#195000
1!
1<!
1=!
1>!
18!
07!
0C!
#200000
0!
0<!
0=!
0>!
#205000
1!
1<!
1=!
1>!
19!
08!
1?!
1@!
#210000
1(
0!
1k!
0<!
0=!
0>!
#215000
1!
1<!
1=!
1>!
1A!
1:!
09!
1B!
0@!
14!
#215001
1c"
1]"
1\"
0["
1Z"
1W"
1V"
1U"
0R"
1?"
19"
18"
07"
16"
13"
12"
11"
0."
0g
1j
1k
1l
1o
0p
1q
1r
1x
1f!
1("
0'"
0#"
1I
1C
1B
0A
1@
1=
1<
1;
08
1""
1!"
1,!
1-!
1.!
12!
03!
0O
1*
11
1/
1+
#220000
1)
0!
1D!
0<!
0=!
0>!
#225000
1!
1<!
1=!
1>!
0A!
0:!
17!
0B!
1C!
1@!
0?!
04!
0@!
1h!
1i!
1~
1Y
#230000
0!
0<!
0=!
0>!
#235000
1!
1<!
1=!
1>!
18!
07!
0C!
#240000
0!
0<!
0=!
0>!
#245000
1!
1<!
1=!
1>!
19!
08!
1?!
1@!
#250000
0!
0<!
0=!
0>!
#255000
1!
1<!
1=!
1>!
1A!
1:!
09!
1B!
0@!
14!
#255001
1d"
1b"
0]"
0\"
0Z"
0Y"
0V"
0T"
1@"
1>"
09"
08"
06"
05"
02"
00"
0i
0k
0n
0o
0q
0r
1w
1y
1\!
0("
1v!
1J
1H
0C
0B
0@
0?
0<
0:
1r!
0""
0!"
1{!
1(!
0,!
0-!
0a
13!
1O
0S
0/
0+
1,
#260000
0!
0<!
0=!
0>!
#265000
1!
1<!
1=!
1>!
0A!
0:!
17!
0B!
1C!
1@!
0?!
04!
0@!
1t!
1^!
1u!
1_!
1}
1!!
1Z
1X
#270000
0!
0<!
0=!
0>!
#275000
1!
1<!
1=!
1>!
18!
07!
0C!
#280000
0!
0<!
0=!
0>!
#285000
1!
1<!
1=!
1>!
19!
08!
1?!
1@!
#290000
0!
0<!
0=!
0>!
#295000
1!
1<!
1=!
1>!
1A!
1:!
09!
1B!
0@!
14!
#295001
0d"
0c"
0b"
1["
1Y"
0W"
0U"
1T"
1R"
0@"
0?"
0>"
17"
15"
03"
01"
10"
1."
1g
1i
0j
0l
1n
1p
0w
0x
0y
0f!
0\!
1'"
1#"
0v!
0J
0I
0H
1A
1?
0=
0;
1:
18
0r!
0{!
0(!
1a
0.!
02!
0*
01
1S
0,
#300000
0!
0<!
0=!
0>!
#305000
1!
1<!
1=!
1>!
0A!
0:!
17!
0B!
1C!
1@!
0?!
04!
0@!
0t!
0h!
0^!
0u!
0i!
0_!
0}
0~
0!!
0Z
0Y
0X
#310000
0!
0<!
0=!
0>!
#315000
1!
1<!
1=!
1>!
18!
07!
0C!
#320000
b100 $
0!
1l!
0<!
0=!
0>!
#325000
1!
1<!
1=!
1>!
19!
08!
1?!
1@!
#330000
0!
0<!
0=!
0>!
#335000
1!
1<!
1=!
1>!
1A!
1:!
09!
1B!
0@!
14!
#335001
1c"
1]"
1\"
0["
1Z"
1W"
1V"
1U"
0R"
1?"
19"
18"
07"
16"
13"
12"
11"
0."
0g
1j
1k
1l
1o
0p
1q
1r
1x
1f!
1("
0'"
0#"
1I
1C
1B
0A
1@
1=
1<
1;
08
1""
1!"
1,!
1-!
1.!
12!
03!
0O
1*
11
1/
1+
#340000
0!
0<!
0=!
0>!
#345000
1!
1<!
1=!
1>!
0A!
0:!
17!
0B!
1C!
1@!
0?!
04!
0@!
1h!
1i!
1~
1Y
#350000
0!
0<!
0=!
0>!
#355000
1!
1<!
1=!
1>!
18!
07!
0C!
#360000
0!
0<!
0=!
0>!
#365000
1!
1<!
1=!
1>!
19!
08!
1?!
1@!
#370000
0!
0<!
0=!
0>!
#375000
1!
1<!
1=!
1>!
1A!
1:!
09!
1B!
0@!
14!
#375001
1d"
1b"
0]"
0\"
0Z"
0Y"
0V"
0T"
1@"
1>"
09"
08"
06"
05"
02"
00"
0i
0k
0n
0o
0q
0r
1w
1y
1\!
0("
1v!
1J
1H
0C
0B
0@
0?
0<
0:
1r!
0""
0!"
1{!
1(!
0,!
0-!
0a
13!
1O
0S
0/
0+
1,
#380000
0!
0<!
0=!
0>!
#385000
1!
1<!
1=!
1>!
0A!
0:!
17!
0B!
1C!
1@!
0?!
04!
0@!
1t!
1^!
1u!
1_!
1}
1!!
1Z
1X
#390000
0!
0<!
0=!
0>!
#395000
1!
1<!
1=!
1>!
18!
07!
0C!
#400000
0!
0<!
0=!
0>!
#405000
1!
1<!
1=!
1>!
19!
08!
1?!
1@!
#410000
0!
0<!
0=!
0>!
#415000
1!
1<!
1=!
1>!
1A!
1:!
09!
1B!
0@!
14!
#415001
0d"
0c"
0b"
1["
1Y"
0W"
0U"
1T"
1R"
0@"
0?"
0>"
17"
15"
03"
01"
10"
1."
1g
1i
0j
0l
1n
1p
0w
0x
0y
0f!
0\!
1'"
1#"
0v!
0J
0I
0H
1A
1?
0=
0;
1:
18
0r!
0{!
0(!
1a
0.!
02!
0*
01
1S
0,
#420000
0!
0<!
0=!
0>!
#425000
1!
1<!
1=!
1>!
0A!
0:!
17!
0B!
1C!
1@!
0?!
04!
0@!
0t!
0h!
0^!
0u!
0i!
0_!
0}
0~
0!!
0Z
0Y
0X
#430000
0!
0<!
0=!
0>!
#435000
1!
1<!
1=!
1>!
18!
07!
0C!
#440000
0!
0<!
0=!
0>!
#445000
1!
1<!
1=!
1>!
19!
08!
1?!
1@!
#450000
0!
0<!
0=!
0>!
#455000
1!
1<!
1=!
1>!
1A!
1:!
09!
1B!
0@!
14!
#455001
1c"
1]"
1\"
0["
1Z"
1W"
1V"
1U"
0R"
1?"
19"
18"
07"
16"
13"
12"
11"
0."
0g
1j
1k
1l
1o
0p
1q
1r
1x
1f!
1("
0'"
0#"
1I
1C
1B
0A
1@
1=
1<
1;
08
1""
1!"
1,!
1-!
1.!
12!
03!
0O
1*
11
1/
1+
#460000
0!
0<!
0=!
0>!
#465000
1!
1<!
1=!
1>!
0A!
0:!
17!
0B!
1C!
1@!
0?!
04!
0@!
1h!
1i!
1~
1Y
#470000
0!
0<!
0=!
0>!
#475000
1!
1<!
1=!
1>!
18!
07!
0C!
#480000
0!
0<!
0=!
0>!
#485000
1!
1<!
1=!
1>!
19!
08!
1?!
1@!
#490000
0!
0<!
0=!
0>!
#495000
1!
1<!
1=!
1>!
1A!
1:!
09!
1B!
0@!
14!
#495001
1d"
1b"
0]"
0\"
0Z"
0Y"
0V"
0T"
1@"
1>"
09"
08"
06"
05"
02"
00"
0i
0k
0n
0o
0q
0r
1w
1y
1\!
0("
1v!
1J
1H
0C
0B
0@
0?
0<
0:
1r!
0""
0!"
1{!
1(!
0,!
0-!
0a
13!
1O
0S
0/
0+
1,
#500000
0!
0<!
0=!
0>!
#505000
1!
1<!
1=!
1>!
0A!
0:!
17!
0B!
1C!
1@!
0?!
04!
0@!
1t!
1^!
1u!
1_!
1}
1!!
1Z
1X
#510000
0!
0<!
0=!
0>!
#515000
1!
1<!
1=!
1>!
18!
07!
0C!
#520000
0!
0<!
0=!
0>!
#525000
1!
1<!
1=!
1>!
19!
08!
1?!
1@!
#530000
0!
0<!
0=!
0>!
#535000
1!
1<!
1=!
1>!
1A!
1:!
09!
1B!
0@!
14!
#535001
0d"
0c"
0b"
1["
1Y"
0W"
0U"
1T"
1R"
0@"
0?"
0>"
17"
15"
03"
01"
10"
1."
1g
1i
0j
0l
1n
1p
0w
0x
0y
0f!
0\!
1'"
1#"
0v!
0J
0I
0H
1A
1?
0=
0;
1:
18
0r!
0{!
0(!
1a
0.!
02!
0*
01
1S
0,
#540000
0!
0<!
0=!
0>!
#545000
1!
1<!
1=!
1>!
0A!
0:!
17!
0B!
1C!
1@!
0?!
04!
0@!
0t!
0h!
0^!
0u!
0i!
0_!
0}
0~
0!!
0Z
0Y
0X
#550000
0!
0<!
0=!
0>!
#555000
1!
1<!
1=!
1>!
18!
07!
0C!
#560000
0!
0<!
0=!
0>!
#565000
1!
1<!
1=!
1>!
19!
08!
1?!
1@!
#570000
0!
0<!
0=!
0>!
